2020-01-19 16:27:07.622  INFO 1 --- [           main] com.pbh.master.auth.AuthApplication      : Starting AuthApplication on 8948e5f72c0d with PID 1 (/app.jar started by root in /)
2020-01-19 16:27:07.630  INFO 1 --- [           main] com.pbh.master.auth.AuthApplication      : No active profile set, falling back to default profiles: default
2020-01-19 16:27:09.135  INFO 1 --- [           main] c.pbh.master.shared.SharedConfiguration  : GRACEFUL_SHUTDOWN is true in 30
2020-01-19 16:27:09.141  INFO 1 --- [           main] c.pbh.master.shared.SharedConfiguration  : RETRY             is true
2020-01-19 16:27:09.145  INFO 1 --- [           main] c.pbh.master.shared.SharedConfiguration  : DNS-TTL           is null
2020-01-19 16:27:09.518  INFO 1 --- [           main] com.pbh.master.shared.TomcatCustomizer   : ####################################################################################
2020-01-19 16:27:09.519  INFO 1 --- [           main] com.pbh.master.shared.TomcatCustomizer   : # Keepalive = false
2020-01-19 16:27:09.519  INFO 1 --- [           main] com.pbh.master.shared.TomcatCustomizer   : # maxKeepAliveRequests 1
2020-01-19 16:27:09.522  INFO 1 --- [           main] com.pbh.master.shared.TomcatCustomizer   : # keepalive timeout: 0 ms
2020-01-19 16:27:09.522  INFO 1 --- [           main] com.pbh.master.shared.TomcatCustomizer   : # connection timeout: 600000 ms
2020-01-19 16:27:09.522  INFO 1 --- [           main] com.pbh.master.shared.TomcatCustomizer   : # max connections: 10000
2020-01-19 16:27:09.523  INFO 1 --- [           main] com.pbh.master.shared.TomcatCustomizer   : ####################################################################################
2020-01-19 16:27:09.577  INFO 1 --- [           main] o.s.b.w.embedded.tomcat.TomcatWebServer  : Tomcat initialized with port(s): 8080 (http)
2020-01-19 16:27:09.596  INFO 1 --- [           main] o.apache.catalina.core.StandardService   : Starting service [Tomcat]
2020-01-19 16:27:09.597  INFO 1 --- [           main] org.apache.catalina.core.StandardEngine  : Starting Servlet engine: [Apache Tomcat/9.0.27]
2020-01-19 16:27:09.700  INFO 1 --- [           main] o.a.c.c.C.[Tomcat].[localhost].[/]       : Initializing Spring embedded WebApplicationContext
2020-01-19 16:27:09.701  INFO 1 --- [           main] o.s.web.context.ContextLoader            : Root WebApplicationContext: initialization completed in 1935 ms
2020-01-19 16:27:09.839  INFO 1 --- [           main] c.pbh.master.shared.SharedConfiguration  : Configure retry
2020-01-19 16:27:10.012  INFO 1 --- [           main] o.s.s.concurrent.ThreadPoolTaskExecutor  : Initializing ExecutorService 'applicationTaskExecutor'
2020-01-19 16:27:10.332  INFO 1 --- [           main] o.s.b.w.embedded.tomcat.TomcatWebServer  : Tomcat started on port(s): 8080 (http) with context path ''
2020-01-19 16:27:10.338  INFO 1 --- [           main] com.pbh.master.auth.AuthApplication      : Started AuthApplication in 3.741 seconds (JVM running for 4.265)
2020-01-19 16:27:36.237  INFO 1 --- [nio-8080-exec-1] o.a.c.c.C.[Tomcat].[localhost].[/]       : Initializing Spring DispatcherServlet 'dispatcherServlet'
2020-01-19 16:27:36.241  INFO 1 --- [nio-8080-exec-1] o.s.web.servlet.DispatcherServlet        : Initializing Servlet 'dispatcherServlet'
2020-01-19 16:27:36.248  INFO 1 --- [nio-8080-exec-1] o.s.web.servlet.DispatcherServlet        : Completed initialization in 6 ms
