2020-01-15 21:42:44.648  INFO 1 --- [           main] com.pbh.master.service2.Application      : Starting Application on 3319454306aa with PID 1 (/app.jar started by root in /)
2020-01-15 21:42:44.687  INFO 1 --- [           main] com.pbh.master.service2.Application      : No active profile set, falling back to default profiles: default
2020-01-15 21:42:49.976  INFO 1 --- [           main] c.pbh.master.shared.SharedConfiguration  : GRACEFUL_SHUTDOWN is false in 30
2020-01-15 21:42:49.979  INFO 1 --- [           main] c.pbh.master.shared.SharedConfiguration  : RETRY             is false
2020-01-15 21:42:49.980  INFO 1 --- [           main] c.pbh.master.shared.SharedConfiguration  : DNS-TTL           is null
2020-01-15 21:42:51.143  INFO 1 --- [           main] com.pbh.master.shared.TomcatCustomizer   : ####################################################################################
2020-01-15 21:42:51.147  INFO 1 --- [           main] com.pbh.master.shared.TomcatCustomizer   : # Keepalive = false
2020-01-15 21:42:51.147  INFO 1 --- [           main] com.pbh.master.shared.TomcatCustomizer   : # maxKeepAliveRequests 1
2020-01-15 21:42:51.150  INFO 1 --- [           main] com.pbh.master.shared.TomcatCustomizer   : # keepalive timeout: 0 ms
2020-01-15 21:42:51.150  INFO 1 --- [           main] com.pbh.master.shared.TomcatCustomizer   : # connection timeout: 600000 ms
2020-01-15 21:42:51.150  INFO 1 --- [           main] com.pbh.master.shared.TomcatCustomizer   : # max connections: 10000
2020-01-15 21:42:51.150  INFO 1 --- [           main] com.pbh.master.shared.TomcatCustomizer   : ####################################################################################
2020-01-15 21:42:51.311  INFO 1 --- [           main] o.s.b.w.embedded.tomcat.TomcatWebServer  : Tomcat initialized with port(s): 8080 (http)
2020-01-15 21:42:51.358  INFO 1 --- [           main] o.apache.catalina.core.StandardService   : Starting service [Tomcat]
2020-01-15 21:42:51.375  INFO 1 --- [           main] org.apache.catalina.core.StandardEngine  : Starting Servlet engine: [Apache Tomcat/9.0.27]
2020-01-15 21:42:51.621  INFO 1 --- [           main] o.a.c.c.C.[Tomcat].[localhost].[/]       : Initializing Spring embedded WebApplicationContext
2020-01-15 21:42:51.628  INFO 1 --- [           main] o.s.web.context.ContextLoader            : Root WebApplicationContext: initialization completed in 6560 ms
2020-01-15 21:42:52.082  INFO 1 --- [           main] c.pbh.master.shared.SharedConfiguration  : Configure retry
2020-01-15 21:42:52.653  INFO 1 --- [           main] o.s.s.concurrent.ThreadPoolTaskExecutor  : Initializing ExecutorService 'applicationTaskExecutor'
2020-01-15 21:42:53.420  INFO 1 --- [           main] o.s.b.w.embedded.tomcat.TomcatWebServer  : Tomcat started on port(s): 8080 (http) with context path ''
2020-01-15 21:42:53.433  INFO 1 --- [           main] com.pbh.master.service2.Application      : Started Application in 12.658 seconds (JVM running for 14.264)
2020-01-15 21:43:09.338  INFO 1 --- [nio-8080-exec-1] o.a.c.c.C.[Tomcat].[localhost].[/]       : Initializing Spring DispatcherServlet 'dispatcherServlet'
2020-01-15 21:43:09.338  INFO 1 --- [nio-8080-exec-1] o.s.web.servlet.DispatcherServlet        : Initializing Servlet 'dispatcherServlet'
2020-01-15 21:43:09.346  INFO 1 --- [nio-8080-exec-1] o.s.web.servlet.DispatcherServlet        : Completed initialization in 7 ms
