2020-01-18 21:32:49.970  INFO 1 --- [           main] com.pbh.master.auth.AuthApplication      : Starting AuthApplication on 9f117670a942 with PID 1 (/app.jar started by root in /)
2020-01-18 21:32:49.977  INFO 1 --- [           main] com.pbh.master.auth.AuthApplication      : No active profile set, falling back to default profiles: default
2020-01-18 21:32:51.416  INFO 1 --- [           main] c.pbh.master.shared.SharedConfiguration  : GRACEFUL_SHUTDOWN is true in 30
2020-01-18 21:32:51.418  INFO 1 --- [           main] c.pbh.master.shared.SharedConfiguration  : RETRY             is false
2020-01-18 21:32:51.419  INFO 1 --- [           main] c.pbh.master.shared.SharedConfiguration  : DNS-TTL           is null
2020-01-18 21:32:51.686  INFO 1 --- [           main] com.pbh.master.shared.TomcatCustomizer   : ####################################################################################
2020-01-18 21:32:51.687  INFO 1 --- [           main] com.pbh.master.shared.TomcatCustomizer   : # Keepalive = false
2020-01-18 21:32:51.687  INFO 1 --- [           main] com.pbh.master.shared.TomcatCustomizer   : # maxKeepAliveRequests 1
2020-01-18 21:32:51.689  INFO 1 --- [           main] com.pbh.master.shared.TomcatCustomizer   : # keepalive timeout: 0 ms
2020-01-18 21:32:51.689  INFO 1 --- [           main] com.pbh.master.shared.TomcatCustomizer   : # connection timeout: 600000 ms
2020-01-18 21:32:51.689  INFO 1 --- [           main] com.pbh.master.shared.TomcatCustomizer   : # max connections: 10000
2020-01-18 21:32:51.689  INFO 1 --- [           main] com.pbh.master.shared.TomcatCustomizer   : ####################################################################################
2020-01-18 21:32:51.740  INFO 1 --- [           main] o.s.b.w.embedded.tomcat.TomcatWebServer  : Tomcat initialized with port(s): 8080 (http)
2020-01-18 21:32:51.754  INFO 1 --- [           main] o.apache.catalina.core.StandardService   : Starting service [Tomcat]
2020-01-18 21:32:51.756  INFO 1 --- [           main] org.apache.catalina.core.StandardEngine  : Starting Servlet engine: [Apache Tomcat/9.0.27]
2020-01-18 21:32:51.824  INFO 1 --- [           main] o.a.c.c.C.[Tomcat].[localhost].[/]       : Initializing Spring embedded WebApplicationContext
2020-01-18 21:32:51.825  INFO 1 --- [           main] o.s.web.context.ContextLoader            : Root WebApplicationContext: initialization completed in 1734 ms
2020-01-18 21:32:51.939  INFO 1 --- [           main] c.pbh.master.shared.SharedConfiguration  : Configure retry
2020-01-18 21:32:52.173  INFO 1 --- [           main] o.s.s.concurrent.ThreadPoolTaskExecutor  : Initializing ExecutorService 'applicationTaskExecutor'
2020-01-18 21:32:52.448  INFO 1 --- [           main] o.s.b.w.embedded.tomcat.TomcatWebServer  : Tomcat started on port(s): 8080 (http) with context path ''
2020-01-18 21:32:52.453  INFO 1 --- [           main] com.pbh.master.auth.AuthApplication      : Started AuthApplication in 3.747 seconds (JVM running for 4.293)
2020-01-18 21:33:18.320  INFO 1 --- [nio-8080-exec-1] o.a.c.c.C.[Tomcat].[localhost].[/]       : Initializing Spring DispatcherServlet 'dispatcherServlet'
2020-01-18 21:33:18.321  INFO 1 --- [nio-8080-exec-1] o.s.web.servlet.DispatcherServlet        : Initializing Servlet 'dispatcherServlet'
2020-01-18 21:33:18.329  INFO 1 --- [nio-8080-exec-1] o.s.web.servlet.DispatcherServlet        : Completed initialization in 7 ms
