2020-01-14 21:26:48.167  INFO 1 --- [           main] com.pbh.master.service2.Application      : Starting Application on 16bf6ecb802c with PID 1 (/app.jar started by root in /)
2020-01-14 21:26:48.173  INFO 1 --- [           main] com.pbh.master.service2.Application      : No active profile set, falling back to default profiles: default
2020-01-14 21:26:49.777  INFO 1 --- [           main] c.pbh.master.shared.SharedConfiguration  : GRACEFUL_SHUTDOWN is false in 30
2020-01-14 21:26:49.786  INFO 1 --- [           main] c.pbh.master.shared.SharedConfiguration  : RETRY             is false
2020-01-14 21:26:50.075  INFO 1 --- [           main] com.pbh.master.shared.TomcatCustomizer   : ####################################################################################
2020-01-14 21:26:50.078  INFO 1 --- [           main] com.pbh.master.shared.TomcatCustomizer   : # Keepalive = false
2020-01-14 21:26:50.079  INFO 1 --- [           main] com.pbh.master.shared.TomcatCustomizer   : # maxKeepAliveRequests 1
2020-01-14 21:26:50.081  INFO 1 --- [           main] com.pbh.master.shared.TomcatCustomizer   : # keepalive timeout: 0 ms
2020-01-14 21:26:50.082  INFO 1 --- [           main] com.pbh.master.shared.TomcatCustomizer   : # connection timeout: 600000 ms
2020-01-14 21:26:50.082  INFO 1 --- [           main] com.pbh.master.shared.TomcatCustomizer   : # max connections: 10000
2020-01-14 21:26:50.082  INFO 1 --- [           main] com.pbh.master.shared.TomcatCustomizer   : ####################################################################################
2020-01-14 21:26:50.150  INFO 1 --- [           main] o.s.b.w.embedded.tomcat.TomcatWebServer  : Tomcat initialized with port(s): 8080 (http)
2020-01-14 21:26:50.181  INFO 1 --- [           main] o.apache.catalina.core.StandardService   : Starting service [Tomcat]
2020-01-14 21:26:50.183  INFO 1 --- [           main] org.apache.catalina.core.StandardEngine  : Starting Servlet engine: [Apache Tomcat/9.0.27]
2020-01-14 21:26:50.286  INFO 1 --- [           main] o.a.c.c.C.[Tomcat].[localhost].[/]       : Initializing Spring embedded WebApplicationContext
2020-01-14 21:26:50.286  INFO 1 --- [           main] o.s.web.context.ContextLoader            : Root WebApplicationContext: initialization completed in 1992 ms
2020-01-14 21:26:50.461  INFO 1 --- [           main] c.pbh.master.shared.SharedConfiguration  : Configure retry
2020-01-14 21:26:50.695  INFO 1 --- [           main] o.s.s.concurrent.ThreadPoolTaskExecutor  : Initializing ExecutorService 'applicationTaskExecutor'
2020-01-14 21:26:51.301  INFO 1 --- [           main] o.s.b.w.embedded.tomcat.TomcatWebServer  : Tomcat started on port(s): 8080 (http) with context path ''
2020-01-14 21:26:51.306  INFO 1 --- [           main] com.pbh.master.service2.Application      : Started Application in 4.16 seconds (JVM running for 5.181)
2020-01-14 21:27:16.295  INFO 1 --- [nio-8080-exec-1] o.a.c.c.C.[Tomcat].[localhost].[/]       : Initializing Spring DispatcherServlet 'dispatcherServlet'
2020-01-14 21:27:16.296  INFO 1 --- [nio-8080-exec-1] o.s.web.servlet.DispatcherServlet        : Initializing Servlet 'dispatcherServlet'
2020-01-14 21:27:16.304  INFO 1 --- [nio-8080-exec-1] o.s.web.servlet.DispatcherServlet        : Completed initialization in 8 ms
