2020-01-16 19:52:29.263  INFO 1 --- [           main] com.pbh.master.service3.Application      : Starting Application on eaff59bb2b40 with PID 1 (/app.jar started by root in /)
2020-01-16 19:52:29.266  INFO 1 --- [           main] com.pbh.master.service3.Application      : No active profile set, falling back to default profiles: default
2020-01-16 19:52:30.824  INFO 1 --- [           main] c.pbh.master.shared.SharedConfiguration  : GRACEFUL_SHUTDOWN is false in 600
2020-01-16 19:52:30.835  INFO 1 --- [           main] c.pbh.master.shared.SharedConfiguration  : RETRY             is false
2020-01-16 19:52:30.837  INFO 1 --- [           main] c.pbh.master.shared.SharedConfiguration  : DNS-TTL           is null
2020-01-16 19:52:31.155  INFO 1 --- [           main] com.pbh.master.shared.TomcatCustomizer   : ####################################################################################
2020-01-16 19:52:31.156  INFO 1 --- [           main] com.pbh.master.shared.TomcatCustomizer   : # Keepalive = true
2020-01-16 19:52:31.156  INFO 1 --- [           main] com.pbh.master.shared.TomcatCustomizer   : # maxKeepAliveRequests 100
2020-01-16 19:52:31.158  INFO 1 --- [           main] com.pbh.master.shared.TomcatCustomizer   : # keepalive timeout: 60000 ms
2020-01-16 19:52:31.158  INFO 1 --- [           main] com.pbh.master.shared.TomcatCustomizer   : # connection timeout: 60000 ms
2020-01-16 19:52:31.158  INFO 1 --- [           main] com.pbh.master.shared.TomcatCustomizer   : # max connections: 10000
2020-01-16 19:52:31.158  INFO 1 --- [           main] com.pbh.master.shared.TomcatCustomizer   : ####################################################################################
2020-01-16 19:52:31.209  INFO 1 --- [           main] o.s.b.w.embedded.tomcat.TomcatWebServer  : Tomcat initialized with port(s): 8080 (http)
2020-01-16 19:52:31.239  INFO 1 --- [           main] o.apache.catalina.core.StandardService   : Starting service [Tomcat]
2020-01-16 19:52:31.247  INFO 1 --- [           main] org.apache.catalina.core.StandardEngine  : Starting Servlet engine: [Apache Tomcat/9.0.27]
2020-01-16 19:52:31.383  INFO 1 --- [           main] o.a.c.c.C.[Tomcat].[localhost].[/]       : Initializing Spring embedded WebApplicationContext
2020-01-16 19:52:31.384  INFO 1 --- [           main] o.s.web.context.ContextLoader            : Root WebApplicationContext: initialization completed in 2041 ms
2020-01-16 19:52:31.534  INFO 1 --- [           main] c.pbh.master.shared.SharedConfiguration  : Configure retry
2020-01-16 19:52:31.953  INFO 1 --- [           main] o.s.s.concurrent.ThreadPoolTaskExecutor  : Initializing ExecutorService 'applicationTaskExecutor'
2020-01-16 19:52:32.437  INFO 1 --- [           main] o.s.b.w.embedded.tomcat.TomcatWebServer  : Tomcat started on port(s): 8080 (http) with context path ''
2020-01-16 19:52:32.444  INFO 1 --- [           main] com.pbh.master.service3.Application      : Started Application in 4.26 seconds (JVM running for 5.079)
2020-01-16 19:52:57.563  INFO 1 --- [nio-8080-exec-1] o.a.c.c.C.[Tomcat].[localhost].[/]       : Initializing Spring DispatcherServlet 'dispatcherServlet'
2020-01-16 19:52:57.564  INFO 1 --- [nio-8080-exec-1] o.s.web.servlet.DispatcherServlet        : Initializing Servlet 'dispatcherServlet'
2020-01-16 19:52:57.572  INFO 1 --- [nio-8080-exec-1] o.s.web.servlet.DispatcherServlet        : Completed initialization in 8 ms
