Time;SERVICE1;SERVICE1 Sum;SERVICE2;SERVICE2 Sum;SERVICE3;SERVICE3 Sum;AUTH;AUTH Sum
1579382248059;0;0;0;0;0;0;0;0
1579382249086;0;0;0;0;0;0;10;10
1579382250093;0;0;0;0;0;0;10;10
1579382251216;0;0;0;0;0;0;10;10
1579382252092;0;0;0;0;0;0;10;10
1579382253115;0;0;0;0;0;0;10;10
1579382254141;0;0;10;10;0;0;10;10
1579382255123;0;0;10;10;0;0;10;10
1579382256148;0;0;10;10;0;0;10;10
1579382257132;0;0;10;10;0;0;10;10
1579382258168;0;0;10;10;10;10;10;10
1579382259209;0;0;10;10;10;10;10;10
1579382260162;0;0;10;10;10;10;10;10
1579382261157;0;0;10;10;10;10;10;10
1579382262133;0;0;10;10;10;10;10;10
1579382263182;10;10;10;10;10;10;10;10
1579382264224;10;10;10;10;10;10;10;10
1579382265222;10;10;10;10;10;10;10;10
1579382266161;10;10;10;10;10;10;10;10
1579382267178;10;10;10;10;10;10;10;10
1579382268150;10;10;10;10;10;10;10;10
1579382269180;10;10;10;10;10;10;10;10
1579382270163;10;10;10;10;10;10;10;10
1579382271156;10;10;10;10;10;10;10;10
1579382272134;10;10;10;10;10;10;10;10
1579382273145;10;10;10;10;10;10;10;10
1579382274129;10;10;10;10;10;10;10;10
1579382275157;10;10;10;10;10;10;10;10
1579382276151;10;10;10;10;10;10;10;10
1579382277156;10;10;10;10;10;10;10;10
1579382278245;10;10;10;10;10;10;10;10
1579382279148;10;10;10;10;10;10;10;10
1579382280133;10;10;10;10;10;10;10;10
1579382281165;10;10;10;10;10;10;10;10
1579382282176;10;10;10;10;10;10;10;10
1579382283139;10;10;10;10;10;10;10;10
1579382284150;10;10;10;10;10;10;10;10
1579382285179;10;10;10;10;10;10;10;10
1579382286130;10;10;10;10;10;10;10;10
1579382287156;10;10;10;10;10;10;10;10
1579382288150;10;10;10;10;10;10;10;10
1579382289173;10;10;10;10;10;10;10;10
1579382290148;10;10;10;10;10;10;10;10
1579382291145;10;10;10;10;10;10;10;10
1579382292173;10;10;10;10;10;10;10;10
1579382293144;10;10;10;10;10;10;10;10
1579382294138;10;10;10;10;10;10;10;10
1579382295164;10;10;10;10;10;10;10;10
1579382296136;10;10;10;10;10;10;10;10
1579382297150;10;10;10;10;10;10;10;10
1579382298133;10;10;10;10;10;10;10;10
1579382299150;10;10;10;10;10;10;10;10
1579382300141;10;10;10;10;10;10;10;10
1579382301142;10;10;10;10;10;10;10;10
1579382302149;10;10;10;10;10;10;10;10
1579382303139;10;10;10;10;10;10;10;10
1579382304141;10;10;10;10;10;10;10;10
1579382305131;10;10;10;10;10;10;10;10
1579382306146;10;10;10;10;10;10;10;10
1579382307135;10;10;10;10;10;10;10;10
1579382308167;10;10;10;10;10;10;10;10
1579382309142;10;10;10;10;10;10;10;10
1579382310157;10;10;10;10;10;10;10;10
1579382311155;10;10;10;10;10;10;10;10
1579382312140;10;10;10;10;10;10;10;10
1579382313177;10;10;10;10;10;10;10;10
1579382314133;10;10;10;10;10;10;10;10
1579382315157;10;10;10;10;10;10;10;10
1579382316168;10;10;10;10;10;10;10;10
1579382317146;10;10;10;10;10;10;10;10
1579382318129;10;10;10;10;10;10;10;10
1579382319142;10;10;10;10;10;10;10;10
1579382320990;10;10;10;10;10;10;10;10
1579382322109;10;10;10;10;10;10;10;10
1579382323207;10;10;10;10;10;10;10;10
1579382323658;10;10;10;10;10;10;10;10
1579382324148;10;10;10;10;10;10;10;10
1579382325121;10;10;10;10;10;10;10;10
1579382326157;10;10;10;10;10;10;10;10
1579382327139;10;10;10;10;10;10;10;10
1579382328143;10;10;10;10;10;10;10;10
1579382329143;10;10;10;10;10;10;10;10
1579382330156;10;10;10;10;10;10;10;10
1579382331159;10;10;10;10;10;10;10;10
1579382332161;10;10;10;10;10;10;10;10
1579382333133;10;10;10;10;10;10;10;10
1579382334154;10;10;10;10;10;10;10;10
1579382335136;10;10;10;10;10;10;10;10
1579382336167;10;10;10;10;10;10;10;10
1579382337126;10;10;10;10;10;10;10;10
1579382338138;10;10;10;10;10;10;10;10
1579382339145;10;10;10;10;10;10;10;10
1579382340138;10;10;10;10;10;10;10;10
1579382341139;10;10;10;10;10;10;10;10
1579382342174;10;10;10;10;10;10;10;10
1579382343169;10;10;10;10;10;10;10;10
1579382344131;10;10;10;10;10;10;10;10
1579382345170;10;10;10;10;10;10;10;10
1579382346150;10;10;10;10;10;10;10;10
1579382347127;10;10;10;10;10;10;10;10
1579382348135;10;10;10;10;10;10;10;10
1579382349149;10;10;10;10;10;10;10;10
1579382350176;10;10;10;10;10;10;10;10
1579382351188;10;10;10;10;10;10;10;10
1579382352154;10;10;10;10;10;10;10;10
1579382353144;10;10;10;10;10;10;10;10
1579382354159;10;10;10;10;10;10;10;10
1579382355143;10;10;10;10;10;10;10;10
1579382356149;9;10;10;10;10;10;10;10
1579382357150;9;10;10;10;10;10;10;10
1579382358140;9;10;10;10;10;10;10;10
1579382359174;9;10;10;10;10;10;10;10
1579382360165;9;10;10;10;10;10;10;10
1579382361140;10;11;9;10;10;10;10;10
1579382362147;10;11;9;10;10;10;10;10
1579382363153;10;11;9;10;10;10;10;10
1579382364154;10;11;9;10;10;10;10;10
1579382365172;10;11;9;10;10;10;10;10
1579382366149;10;11;10;11;9;10;10;10
1579382367176;10;11;10;11;9;10;10;10
1579382368155;10;11;10;11;9;10;10;10
1579382369161;10;11;10;11;9;10;10;10
1579382370151;10;11;10;11;9;10;10;10
1579382371162;10;11;10;11;10;11;9;10
1579382372253;10;11;10;11;10;11;9;10
1579382373190;10;11;10;11;10;11;9;10
1579382374148;10;11;10;11;10;11;9;10
1579382375142;10;11;10;11;10;11;9;10
1579382376151;10;11;10;11;10;11;10;11
1579382377166;10;11;10;11;10;11;10;11
1579382378151;10;11;10;11;10;11;10;11
1579382379164;10;11;10;11;10;11;10;11
1579382380132;10;11;10;11;10;11;10;11
1579382381177;10;11;10;11;10;11;10;11
1579382382148;10;11;10;11;10;11;10;11
1579382383177;10;11;10;11;10;11;10;11
1579382384164;10;11;10;11;10;11;10;11
1579382385149;10;11;10;11;10;11;10;11
1579382386137;10;11;10;11;10;11;10;11
1579382387139;10;11;10;11;10;11;10;11
1579382388172;9;11;10;11;10;11;10;11
1579382389159;9;11;10;11;10;11;10;11
1579382390155;9;11;10;11;10;11;10;11
1579382391142;9;11;10;11;10;11;10;11
1579382392129;9;11;10;11;10;11;10;11
1579382393137;10;12;9;11;10;11;10;11
1579382394154;10;12;9;11;10;11;10;11
1579382395163;10;12;9;11;10;11;10;11
1579382396156;10;12;9;11;10;11;10;11
1579382397151;10;12;9;11;10;11;10;11
1579382398175;10;12;10;12;9;11;10;11
1579382399133;10;12;10;12;9;11;10;11
1579382400154;10;12;10;12;9;11;10;11
1579382401136;10;12;10;12;9;11;10;11
1579382402152;10;12;10;12;9;11;10;11
1579382403175;10;12;10;12;10;12;9;11
1579382404161;10;12;10;12;10;12;9;11
1579382405141;10;12;10;12;10;12;9;11
1579382406425;10;12;10;12;10;12;9;11
1579382407299;10;12;10;12;10;12;9;11
1579382408167;10;12;10;12;10;12;10;12
1579382409189;10;12;10;12;10;12;10;12
1579382410168;10;12;10;12;10;12;10;12
1579382411185;10;12;10;12;10;12;10;12
1579382412193;10;12;10;12;10;12;10;12
1579382413158;10;12;10;12;10;12;10;12
1579382414140;10;12;10;12;10;12;10;12
1579382415144;10;12;10;12;10;12;10;12
1579382416140;10;12;10;12;10;12;10;12
1579382417205;10;12;10;12;10;12;10;12
1579382418135;10;12;10;12;10;12;10;12
1579382419150;10;12;10;12;10;12;10;12
1579382420186;9;12;10;12;10;12;10;12
1579382421161;9;12;10;12;10;12;10;12
1579382422144;9;12;10;12;10;12;10;12
1579382423162;9;12;10;12;10;12;10;12
1579382424131;9;12;10;12;10;12;10;12
1579382425136;10;13;9;12;10;12;10;12
1579382426143;10;13;9;12;10;12;10;12
1579382427139;10;13;9;12;10;12;10;12
1579382428137;10;13;9;12;10;12;10;12
1579382429125;10;13;9;12;10;12;9;12
1579382430156;10;13;10;13;9;12;9;12
1579382431133;10;13;10;13;9;12;9;12
1579382432149;10;13;10;13;9;12;9;12
1579382433147;10;13;10;13;9;12;9;12
1579382434156;10;13;10;13;9;12;10;13
1579382435146;10;13;10;13;10;13;10;13
1579382436141;10;13;10;13;10;13;10;13
1579382437151;10;13;10;13;10;13;10;13
1579382438125;10;13;10;13;10;13;10;13
1579382439130;10;13;10;13;10;13;10;13
1579382440130;10;13;10;13;10;13;10;13
1579382441149;10;13;10;13;10;13;10;13
1579382442175;10;13;10;13;10;13;10;13
1579382443138;10;13;10;13;10;13;10;13
1579382444183;10;13;10;13;10;13;10;13
1579382445181;10;13;10;13;10;13;10;13
1579382446130;10;13;10;13;10;13;10;13
1579382447234;10;13;10;13;10;13;10;13
1579382448150;10;13;10;13;10;13;10;13
1579382449134;10;13;10;13;10;13;10;13
1579382450179;10;13;10;13;10;13;10;13
1579382451152;10;13;10;13;10;13;10;13
1579382452151;9;13;10;13;10;13;10;13
1579382453150;9;13;10;13;10;13;10;13
1579382454150;9;13;10;13;10;13;10;13
1579382455175;9;13;10;13;10;13;10;13
1579382456142;9;13;10;13;9;13;10;13
1579382457207;10;14;9;13;9;13;10;13
1579382458162;10;14;9;13;9;13;10;13
1579382459136;10;14;9;13;9;13;10;13
1579382460146;10;14;9;13;9;13;10;13
1579382461153;10;14;9;13;10;14;9;13
1579382462171;10;14;10;14;10;14;9;13
1579382463153;10;14;10;14;10;14;9;13
1579382464155;10;14;10;14;10;14;9;13
1579382465147;10;14;10;14;10;14;9;13
1579382466154;10;14;10;14;10;14;10;14
1579382467137;10;14;10;14;10;14;10;14
1579382468142;10;14;10;14;10;14;10;14
1579382469144;10;14;10;14;10;14;10;14
1579382470136;10;14;10;14;10;14;10;14
1579382471129;10;14;10;14;10;14;10;14
1579382472142;10;14;10;14;10;14;10;14
1579382473151;10;14;10;14;10;14;10;14
1579382474151;10;14;10;14;10;14;10;14
1579382475175;10;14;10;14;10;14;10;14
1579382480560;10;14;10;14;10;14;10;14
1579382480863;10;14;10;14;10;14;10;14
1579382481203;10;14;10;14;10;14;10;14
1579382481490;10;14;10;14;10;14;10;14
1579382481778;10;14;10;14;9;14;10;14
1579382482062;10;14;10;14;9;14;10;14
1579382482399;10;14;10;14;9;14;10;14
1579382483112;10;14;10;14;9;14;10;14
1579382484125;9;14;10;14;9;14;10;14
1579382485128;9;14;10;14;9;14;10;14
1579382486127;9;14;10;14;9;14;10;14
1579382487109;9;14;10;14;10;15;10;14
1579382488147;9;14;10;14;10;15;10;14
1579382489137;10;15;9;14;10;15;10;14
1579382490151;10;15;9;14;10;15;10;14
1579382491149;10;15;9;14;10;15;10;14
1579382492162;10;15;9;14;10;15;10;14
1579382493146;10;15;9;14;10;15;9;14
1579382494185;10;15;10;15;10;15;9;14
1579382495145;10;15;10;15;10;15;9;14
1579382496121;10;15;10;15;10;15;9;14
1579382497138;10;15;10;15;10;15;9;14
1579382498126;10;15;10;15;10;15;10;15
1579382499114;10;15;10;15;10;15;10;15
1579382500124;10;15;10;15;10;15;10;15
1579382501122;10;15;10;15;10;15;10;15
1579382502124;10;15;10;15;10;15;10;15
1579382503134;10;15;10;15;10;15;10;15
1579382504133;10;15;10;15;10;15;10;15
1579382505125;10;15;10;15;10;15;10;15
1579382506201;10;15;10;15;10;15;10;15
1579382507118;10;15;10;15;10;15;10;15
1579382508153;10;15;10;15;9;15;10;15
1579382509137;10;15;10;15;9;15;10;15
1579382510135;10;15;10;15;9;15;10;15
1579382511107;10;15;10;15;9;15;10;15
1579382512125;10;15;10;15;9;15;10;15
1579382513120;10;15;10;15;10;16;10;15
1579382514122;10;15;10;15;10;16;10;15
1579382515141;10;15;10;15;10;16;10;15
1579382516143;9;15;10;15;10;16;10;15
1579382517151;9;15;10;15;10;16;10;15
1579382518126;9;15;10;15;10;16;10;15
1579382519147;9;15;10;15;10;16;10;15
1579382520134;9;15;10;15;10;16;10;15
1579382521125;10;16;9;15;10;16;10;15
1579382522122;10;16;9;15;10;16;10;15
1579382523114;10;16;9;15;10;16;10;15
1579382524130;10;16;9;15;10;16;10;15
1579382525122;10;16;9;15;10;16;9;15
1579382526129;10;16;10;16;10;16;9;15
1579382527125;10;16;10;16;10;16;9;15
1579382528128;10;16;10;16;10;16;9;15
1579382529122;10;16;10;16;10;16;9;15
1579382530131;10;16;10;16;10;16;10;16
1579382531127;10;16;10;16;10;16;10;16
1579382532132;10;16;10;16;10;16;10;16
1579382533125;10;16;10;16;10;16;10;16
1579382534115;10;16;10;16;10;16;10;16
1579382535125;10;16;10;16;10;16;10;16
1579382536142;10;16;10;16;10;16;10;16
1579382537135;10;16;10;16;10;16;10;16
1579382538140;10;16;10;16;10;16;10;16
1579382539156;10;16;10;16;10;16;10;16
1579382540120;10;16;10;16;9;16;10;16
1579382541122;10;16;10;16;9;16;10;16
1579382542145;10;16;10;16;9;16;10;16
1579382543120;10;16;10;16;9;16;10;16
1579382544118;10;16;10;16;9;16;10;16
1579382545150;10;16;10;16;10;17;10;16
1579382546136;10;16;10;16;10;17;10;16
1579382547150;10;16;10;16;10;17;10;16
1579382548124;9;16;10;16;10;17;10;16
1579382549154;9;16;10;16;10;17;10;16
1579382550149;9;16;10;16;10;17;10;16
1579382551146;9;16;10;16;10;17;10;16
1579382552127;9;16;10;16;10;17;10;16
1579382553122;10;17;9;16;10;17;10;16
1579382554114;10;17;9;16;10;17;10;16
1579382555118;10;17;9;16;10;17;10;16
1579382556123;10;17;9;16;10;17;10;16
1579382557130;10;17;9;16;10;17;9;16
1579382558122;10;17;10;17;10;17;9;16
1579382559107;10;17;10;17;10;17;9;16
1579382560132;10;17;10;17;10;17;9;16
1579382561140;10;17;10;17;10;17;9;16
1579382562122;10;17;10;17;10;17;10;17
1579382563132;10;17;10;17;10;17;10;17
1579382564116;10;17;10;17;10;17;10;17
1579382565120;10;17;10;17;10;17;10;17
1579382566134;10;17;10;17;9;17;10;17
1579382567188;10;17;10;17;9;17;10;17
1579382568120;10;17;10;17;9;17;10;17
1579382569113;10;17;10;17;9;17;10;17
1579382570115;10;17;10;17;9;17;10;17
1579382571121;10;17;10;17;10;18;10;17
1579382572157;10;17;10;17;10;18;10;17
1579382573111;10;17;10;17;10;18;10;17
1579382574124;10;17;10;17;10;18;10;17
1579382575148;10;17;10;17;10;18;10;17
1579382576142;10;17;10;17;10;18;10;17
1579382577118;10;17;10;17;10;18;10;17
1579382578119;10;17;10;17;10;18;10;17
1579382579136;10;17;10;17;10;18;10;17
1579382580123;9;17;10;17;10;18;10;17
1579382581118;9;17;10;17;10;18;10;17
1579382582164;9;17;10;17;10;18;10;17
1579382583124;9;17;10;17;10;18;10;17
1579382584117;9;17;10;17;10;18;10;17
1579382585124;10;18;9;17;10;18;10;17
1579382586116;10;18;9;17;10;18;10;17
1579382587111;10;18;9;17;10;18;10;17
1579382588159;10;18;9;17;10;18;10;17
1579382589133;10;18;9;17;10;18;9;17
1579382590131;10;18;10;18;10;18;9;17
1579382591349;10;18;10;18;10;18;9;17
1579382592117;10;18;10;18;10;18;9;17
1579382593147;10;18;10;18;10;18;9;17
1579382594127;10;18;10;18;10;18;10;18
1579382595148;10;18;10;18;10;18;10;18
1579382596146;10;18;10;18;10;18;10;18
1579382597122;10;18;10;18;10;18;10;18
1579382598145;10;18;10;18;9;18;10;18
1579382599187;10;18;10;18;9;18;10;18
1579382600111;10;18;10;18;9;18;10;18
1579382601108;10;18;10;18;9;18;10;18
1579382602149;10;18;10;18;9;18;10;18
1579382603134;10;18;10;18;10;19;10;18
1579382604125;10;18;10;18;10;19;10;18
1579382605163;10;18;10;18;10;19;10;18
1579382606124;9;18;10;18;10;19;10;18
1579382607128;9;18;10;18;10;19;10;18
1579382608108;9;18;10;18;10;19;10;18
1579382609127;9;18;10;18;10;19;10;18
1579382610115;9;18;10;18;10;19;10;18
1579382611127;10;19;9;18;10;19;10;18
1579382612168;10;19;9;18;10;19;10;18
1579382613210;10;19;9;18;10;19;10;18
1579382614134;10;19;9;18;10;19;10;18
1579382615149;10;19;9;18;10;19;9;18
1579382616140;10;19;10;19;10;19;9;18
1579382617165;10;19;10;19;10;19;9;18
1579382618122;10;19;10;19;10;19;9;18
1579382619115;10;19;10;19;10;19;9;18
1579382620624;10;19;10;19;10;19;10;19
1579382621434;10;19;10;19;10;19;10;19
1579382622686;10;19;10;19;10;19;10;19
1579382623614;10;19;10;19;10;19;10;19
1579382624116;10;19;10;19;10;19;10;19
1579382625123;10;19;10;19;10;19;10;19
1579382626133;10;19;10;19;10;19;10;19
1579382627133;10;19;10;19;10;19;10;19
1579382628112;10;19;10;19;10;19;10;19
1579382629123;10;19;10;19;10;19;10;19
1579382630117;10;19;10;19;9;19;10;19
1579382631106;10;19;10;19;9;19;10;19
1579382632120;9;19;10;19;9;19;10;19
1579382633113;9;19;10;19;9;19;10;19
1579382634125;9;19;10;19;9;19;10;19
1579382635124;9;19;10;19;10;20;10;19
1579382636117;9;19;10;19;10;20;10;19
1579382637147;10;20;10;19;10;20;10;19
1579382638135;10;20;10;19;10;20;10;19
1579382639133;10;20;10;19;10;20;10;19
1579382640132;10;20;10;19;10;20;10;19
1579382641137;10;20;10;19;10;20;10;19
1579382642123;10;20;10;19;10;20;10;19
1579382643115;10;20;9;19;10;20;10;19
1579382644132;10;20;9;19;10;20;10;19
1579382645109;10;20;9;19;10;20;10;19
1579382646118;10;20;9;19;10;20;10;19
1579382647110;10;20;9;19;10;20;9;19
1579382648116;10;20;10;20;10;20;9;19
1579382649112;10;20;10;20;10;20;9;19
1579382650110;10;20;10;20;10;20;9;19
1579382651100;10;20;10;20;10;20;9;19
1579382652114;10;20;10;20;10;20;10;20
1579382653157;10;20;10;20;10;20;10;20
1579382654137;10;20;10;20;10;20;10;20
1579382655131;10;20;10;20;10;20;10;20
1579382656127;10;20;10;20;9;20;10;20
1579382657132;10;20;10;20;9;20;10;20
1579382658116;10;20;10;20;9;20;10;20
1579382659154;10;20;10;20;9;20;10;20
1579382660117;10;20;10;20;9;20;10;20
1579382661123;10;20;10;20;10;21;10;20
1579382662129;10;20;10;20;10;21;10;20
1579382663123;10;20;10;20;10;21;10;20
1579382664110;9;20;10;20;10;21;10;20
1579382665117;9;20;10;20;10;21;10;20
1579382666131;9;20;10;20;10;21;10;20
1579382667110;9;20;10;20;10;21;10;20
1579382668123;9;20;10;20;10;21;10;20
1579382669118;10;21;9;20;10;21;10;20
1579382670134;10;21;9;20;10;21;10;20
1579382671119;10;21;9;20;10;21;10;20
1579382672108;10;21;9;20;10;21;10;20
1579382673113;10;21;9;20;10;21;10;20
1579382674121;10;21;10;21;10;21;10;20
1579382675107;10;21;10;21;10;21;10;20
1579382676124;10;21;10;21;10;21;10;20
1579382677147;10;21;10;21;10;21;10;20
1579382678132;10;21;10;21;10;21;9;20
1579382679131;10;21;10;21;10;21;9;20
1579382680151;10;21;10;21;10;21;9;20
1579382681221;10;21;10;21;9;21;9;20
1579382682109;10;21;10;21;9;21;9;20
1579382683126;10;21;10;21;9;21;10;21
1579382684152;10;21;10;21;9;21;10;21
1579382685134;10;21;10;21;9;21;10;21
1579382686119;10;21;10;21;10;22;10;21
1579382687121;10;21;10;21;10;22;10;21
1579382688136;10;21;10;21;10;22;10;21
1579382689139;10;21;10;21;10;22;10;21
1579382690142;10;21;10;21;10;22;10;21
1579382691110;10;21;10;21;10;22;10;21
1579382692114;10;21;10;21;10;22;10;21
1579382693099;10;21;10;21;10;22;10;21
1579382694121;10;21;10;21;10;22;10;21
1579382695119;9;21;9;21;10;22;10;21
1579382696128;9;21;9;21;10;22;10;21
1579382697129;9;21;9;21;10;22;10;21
1579382698120;9;21;9;21;10;22;10;21
1579382699136;9;21;9;21;10;22;10;21
1579382700132;10;22;10;22;10;22;10;21
1579382701160;10;22;10;22;10;22;10;21
1579382702136;10;22;10;22;10;22;10;21
1579382703134;10;22;10;22;10;22;10;21
1579382704130;10;22;10;22;10;22;10;21
1579382705129;10;22;10;22;10;22;10;21
1579382706159;10;22;10;22;10;22;10;21
1579382707129;10;22;10;22;10;22;10;21
1579382708126;10;22;10;22;10;22;10;21
1579382709127;10;22;10;22;10;22;9;21
1579382710119;10;22;10;22;10;22;9;21
1579382711177;10;22;10;22;10;22;9;21
1579382712129;10;22;10;22;10;22;9;21
1579382713110;10;22;10;22;9;22;9;21
1579382714129;10;22;10;22;9;22;9;21
1579382715127;10;22;10;22;9;22;10;22
