Time;SERVICE1;SERVICE1 Sum;SERVICE2;SERVICE2 Sum;SERVICE3;SERVICE3 Sum;AUTH;AUTH Sum
1579120546713;0;0;0;0;0;0;0;0
1579120547695;0;0;0;0;0;0;10;10
1579120548670;0;0;0;0;0;0;10;10
1579120549678;0;0;0;0;0;0;10;10
1579120550681;0;0;0;0;0;0;10;10
1579120551687;0;0;0;0;0;0;10;10
1579120552690;0;0;10;10;0;0;10;10
1579120553713;0;0;10;10;0;0;10;10
1579120554714;0;0;10;10;0;0;10;10
1579120555683;0;0;10;10;0;0;10;10
1579120556719;0;0;10;10;0;0;10;10
1579120557712;0;0;10;10;10;10;10;10
1579120558818;0;0;10;10;10;10;10;10
1579120559724;0;0;10;10;10;10;10;10
1579120560731;0;0;10;10;10;10;10;10
1579120561721;10;10;10;10;10;10;10;10
1579120562743;10;10;10;10;10;10;10;10
1579120563766;10;10;10;10;10;10;10;10
1579120564730;10;10;10;10;10;10;10;10
1579120565728;10;10;10;10;10;10;10;10
1579120566732;10;10;10;10;10;10;10;10
1579120567758;10;10;10;10;10;10;10;10
1579120568729;10;10;10;10;10;10;10;10
1579120569718;10;10;10;10;10;10;10;10
1579120570906;10;10;10;10;10;10;10;10
1579120571800;10;10;10;10;10;10;10;10
1579120572706;10;10;10;10;10;10;10;10
1579120573711;10;10;10;10;10;10;10;10
1579120574722;10;10;10;10;10;10;10;10
1579120575711;10;10;10;10;10;10;10;10
1579120576745;10;10;10;10;10;10;10;10
1579120577713;10;10;10;10;10;10;10;10
1579120578719;10;10;10;10;10;10;10;10
1579120579716;10;10;10;10;10;10;10;10
1579120580739;10;10;10;10;10;10;10;10
1579120581726;10;10;10;10;10;10;10;10
1579120582707;10;10;10;10;10;10;10;10
1579120583714;10;10;10;10;10;10;10;10
1579120584713;10;10;10;10;10;10;10;10
1579120585752;10;10;10;10;10;10;10;10
1579120586744;10;10;10;10;10;10;10;10
1579120587702;10;10;10;10;10;10;10;10
1579120588708;10;10;10;10;10;10;10;10
1579120589730;10;10;10;10;10;10;10;10
1579120590714;10;10;10;10;10;10;10;10
1579120591711;10;10;10;10;10;10;10;10
1579120592710;10;10;10;10;10;10;10;10
1579120593709;10;10;10;10;10;10;10;10
1579120594760;10;10;10;10;10;10;10;10
1579120595702;10;10;10;10;10;10;10;10
1579120596714;10;10;10;10;10;10;10;10
1579120597706;10;10;10;10;10;10;10;10
1579120598712;10;10;10;10;10;10;10;10
1579120599706;10;10;10;10;10;10;10;10
1579120600718;10;10;10;10;10;10;10;10
1579120601710;10;10;10;10;10;10;10;10
1579120602717;10;10;10;10;10;10;10;10
1579120603720;10;10;10;10;10;10;10;10
1579120604701;10;10;10;10;10;10;10;10
1579120605708;10;10;10;10;10;10;10;10
1579120606697;10;10;10;10;10;10;10;10
1579120607723;10;10;10;10;10;10;10;10
1579120608711;10;10;10;10;10;10;10;10
1579120609712;10;10;10;10;10;10;10;10
1579120610709;10;10;10;10;10;10;10;10
1579120611708;10;10;10;10;10;10;10;10
1579120612718;10;10;10;10;10;10;10;10
1579120613707;10;10;10;10;10;10;10;10
1579120614700;10;10;10;10;10;10;10;10
1579120615730;10;10;10;10;10;10;10;10
1579120616698;10;10;10;10;10;10;10;10
1579120617710;10;10;10;10;10;10;10;10
1579120618736;10;10;10;10;10;10;10;10
1579120619697;10;10;10;10;10;10;10;10
1579120620708;10;10;10;10;10;10;10;10
1579120621703;10;10;10;10;10;10;10;10
1579120622701;10;10;10;10;10;10;10;10
1579120623713;10;10;10;10;10;10;10;10
1579120624711;10;10;10;10;10;10;10;10
1579120625707;10;10;10;10;10;10;10;10
1579120626713;10;10;10;10;10;10;10;10
1579120627702;10;10;10;10;10;10;10;10
1579120628697;10;10;10;10;10;10;10;10
1579120629709;10;10;10;10;10;10;10;10
1579120630703;10;10;10;10;10;10;10;10
1579120631703;10;10;10;10;10;10;10;10
1579120632704;10;10;10;10;10;10;10;10
1579120633708;10;10;10;10;10;10;10;10
1579120634719;10;10;10;10;10;10;10;10
1579120635706;10;10;10;10;10;10;10;10
1579120636700;10;10;10;10;10;10;10;10
1579120637696;10;10;10;10;10;10;10;10
1579120638709;10;10;10;10;10;10;10;10
1579120639709;10;10;10;10;10;10;10;10
1579120640705;10;10;10;10;10;10;10;10
1579120641700;10;10;10;10;10;10;10;10
1579120642707;10;10;10;10;10;10;10;10
1579120643746;10;10;10;10;10;10;10;10
1579120644717;10;10;10;10;10;10;10;10
1579120645725;10;10;10;10;10;10;10;10
1579120646707;10;10;10;10;10;10;10;10
1579120647714;10;10;10;10;10;10;10;10
1579120648723;10;10;10;10;10;10;10;10
1579120649708;10;10;10;10;10;10;10;10
1579120650706;10;10;10;10;10;10;10;10
1579120651703;10;10;10;10;10;10;10;10
1579120652715;10;10;10;10;10;10;10;10
1579120653705;10;10;10;10;10;10;10;10
1579120654710;10;10;10;10;10;10;10;10
1579120655700;10;10;10;10;10;10;10;10
1579120656702;10;10;10;10;10;10;10;10
1579120657740;10;10;10;10;10;10;10;10
1579120658709;12;12;10;10;10;10;10;10
1579120659721;12;12;10;10;10;10;10;10
1579120660729;12;12;10;10;10;10;10;10
1579120661709;12;12;10;10;10;10;10;10
1579120662720;12;12;10;10;10;10;10;10
1579120663727;12;12;11;11;10;10;10;10
1579120664703;12;12;11;11;10;10;10;10
1579120665713;12;12;11;11;10;10;10;10
1579120666732;12;12;11;11;10;10;10;10
1579120667727;12;12;11;11;10;10;10;10
1579120668723;12;12;11;11;12;12;10;10
1579120669719;12;12;11;11;12;12;10;10
1579120670748;12;12;11;11;12;12;10;10
1579120671742;12;12;11;11;12;12;10;10
1579120672714;12;12;11;11;12;12;10;10
1579120673722;12;12;11;11;12;12;11;11
1579120674715;12;12;11;11;12;12;11;11
1579120675742;12;12;11;11;12;12;11;11
1579120676734;12;12;11;11;12;12;11;11
1579120677729;12;12;11;11;12;12;11;11
1579120678856;12;12;11;11;12;12;11;11
1579120679728;12;12;11;11;12;12;11;11
1579120680720;12;12;11;11;12;12;11;11
1579120681735;12;12;11;11;12;12;11;11
1579120682744;12;12;11;11;12;12;11;11
1579120683767;12;12;11;11;12;12;11;11
1579120684707;12;12;11;11;12;12;11;11
1579120685723;12;12;11;11;12;12;11;11
1579120686743;12;12;11;11;12;12;11;11
1579120687716;12;12;11;11;12;12;11;11
1579120688729;12;12;11;11;12;12;11;11
1579120689712;12;12;11;11;12;12;11;11
1579120690714;12;12;11;11;12;12;11;11
1579120691714;12;13;11;11;12;12;11;11
1579120692728;12;14;11;11;12;12;11;11
1579120693764;12;14;11;11;12;12;11;11
1579120694749;12;14;10;11;12;12;11;11
1579120695810;12;14;10;11;12;12;11;11
1579120696725;12;14;10;11;12;12;11;11
1579120697727;12;14;10;11;12;12;11;11
1579120698713;12;14;10;11;12;12;11;11
1579120699734;12;14;10;11;12;12;11;11
1579120700776;12;14;12;13;12;12;11;11
1579120701742;12;14;12;13;12;12;11;11
1579120702753;12;14;12;13;12;14;11;11
1579120703721;12;14;12;13;12;14;11;11
1579120704723;12;14;12;13;12;14;10;11
1579120705727;12;14;12;13;12;14;10;11
1579120706717;12;14;12;13;12;14;10;11
1579120707738;12;14;12;13;12;14;10;11
1579120708728;12;14;12;13;12;14;10;11
1579120709729;12;14;12;13;12;14;10;11
1579120710730;12;14;12;13;12;14;11;12
1579120711724;12;14;12;13;12;14;11;12
1579120712721;12;14;12;13;12;14;11;12
1579120713737;12;14;12;13;12;14;11;12
1579120714720;12;14;12;13;12;14;11;12
1579120715697;12;14;12;13;12;14;11;12
1579120716698;12;14;12;13;12;14;11;12
1579120717723;12;14;12;13;12;14;11;12
1579120718702;12;14;12;13;12;14;11;12
1579120719722;12;14;12;13;12;14;11;12
1579120720706;12;14;12;13;12;14;11;12
1579120721709;12;14;12;13;12;14;11;12
1579120722734;12;14;12;13;12;14;11;12
1579120723715;12;14;12;13;12;14;11;12
1579120724720;12;14;12;13;12;14;11;12
1579120725713;12;16;12;13;12;14;11;12
1579120726736;12;16;12;13;12;14;11;12
1579120727725;12;16;12;13;12;14;11;12
1579120728727;12;16;12;13;12;14;11;12
1579120729743;12;16;12;13;12;14;11;12
1579120730734;12;16;12;13;12;14;11;12
1579120731715;12;16;12;13;12;14;11;12
1579120732716;12;16;12;13;12;14;11;12
1579120733710;12;16;12;14;12;14;11;12
1579120734701;12;16;12;15;12;14;11;12
1579120735738;12;16;12;15;12;15;11;12
1579120736741;12;16;12;15;12;16;11;12
1579120737714;12;16;12;15;12;16;11;12
1579120738706;12;16;12;15;12;16;11;12
1579120739749;12;16;12;15;12;16;11;12
1579120740700;12;16;12;15;12;16;11;12
1579120741705;12;16;12;15;12;16;11;12
1579120742712;12;16;12;15;12;16;11;12
1579120743710;12;16;12;15;12;16;11;13
1579120744707;12;16;12;15;12;16;11;13
1579120745712;12;16;12;15;12;16;11;13
1579120746698;12;16;12;15;12;16;11;13
1579120747708;12;16;12;15;12;16;11;13
1579120748710;12;16;12;15;12;16;11;13
1579120749715;12;16;12;15;12;16;11;13
1579120750707;12;16;12;15;12;16;11;13
1579120751723;12;16;12;15;12;16;11;13
1579120752723;12;16;12;15;12;16;11;13
1579120753699;12;16;12;15;12;16;11;13
1579120754711;12;16;12;15;12;16;11;13
1579120755713;12;16;12;15;12;16;11;13
1579120756713;12;16;12;15;12;16;11;13
1579120757705;11;16;12;15;12;16;11;13
1579120758707;12;18;12;15;12;16;11;13
1579120759714;12;18;12;15;12;16;11;13
1579120760711;12;18;12;15;12;16;11;13
1579120761731;12;18;12;15;12;16;11;13
1579120762713;12;18;12;15;12;16;11;13
1579120763714;12;18;12;15;12;16;11;13
1579120764708;12;18;12;15;12;16;11;13
1579120765741;12;18;12;15;12;16;11;13
1579120766729;12;18;12;16;12;16;11;13
1579120767716;12;18;12;17;12;16;11;13
1579120768756;12;18;12;17;12;17;11;13
1579120769715;12;18;12;17;12;18;11;13
1579120770735;12;18;12;17;12;18;11;13
1579120771710;12;18;12;17;12;18;11;13
1579120772713;12;18;12;17;12;18;11;13
1579120773697;12;18;12;17;12;18;11;13
1579120774731;12;18;12;17;12;18;11;13
1579120775776;12;18;12;17;12;18;11;13
1579120776696;12;18;12;17;12;18;11;14
1579120777724;12;18;12;17;12;18;11;14
1579120778709;12;18;12;17;12;18;11;14
1579120779704;12;18;12;17;12;18;11;14
1579120780716;12;18;12;17;12;18;11;14
1579120781708;12;18;12;17;12;18;11;14
1579120782758;12;18;12;17;12;18;11;14
1579120783726;12;18;12;17;12;18;11;14
1579120784712;12;18;12;17;12;18;11;14
1579120785693;12;18;12;17;12;18;11;14
1579120786726;12;18;12;17;12;18;11;14
1579120787708;12;18;12;17;12;18;11;14
1579120788763;12;18;12;17;12;18;11;14
1579120789696;12;18;12;17;12;18;11;14
1579120790717;12;18;12;17;12;18;11;14
1579120791721;12;20;12;17;12;18;11;14
1579120792724;12;20;12;17;12;18;11;14
1579120793697;12;20;12;17;12;18;11;14
1579120794711;12;20;12;17;12;18;11;14
1579120795713;12;20;12;17;12;18;11;14
1579120796713;12;20;12;17;12;18;11;14
1579120797712;12;20;12;17;12;18;11;14
1579120798698;12;20;12;17;12;18;11;14
1579120799700;12;20;12;17;12;18;11;14
1579120800720;12;20;12;19;12;18;11;14
1579120801712;12;20;12;19;12;18;11;14
1579120802692;12;20;12;19;12;20;11;14
1579120803722;12;20;12;19;12;20;11;14
1579120804740;12;20;12;19;12;20;11;14
1579120805720;12;20;12;19;12;20;11;14
1579120806730;12;20;12;19;12;20;11;14
1579120807766;12;20;12;19;12;20;11;14
1579120808701;12;20;12;19;12;20;11;14
1579120809694;12;20;12;19;12;20;11;15
1579120810732;12;20;12;19;12;20;11;15
1579120811845;12;20;12;19;12;20;11;15
1579120812787;12;20;12;19;12;20;11;15
1579120813767;12;20;12;19;12;20;11;15
1579120814785;12;20;12;19;12;20;11;15
1579120815927;12;20;12;19;12;20;11;15
1579120816756;12;20;12;19;12;20;11;15
1579120817735;12;20;12;19;12;20;11;15
1579120818735;12;20;12;19;12;20;11;15
1579120819767;12;20;12;19;12;20;11;15
1579120820760;12;20;12;19;12;20;11;15
1579120822686;12;20;12;19;12;20;11;15
1579120823914;12;20;12;19;12;20;11;15
1579120824763;11;20;12;19;12;20;11;15
1579120825070;10;20;12;19;12;20;11;15
1579120825710;10;20;12;19;12;20;11;15
1579120826702;10;20;12;19;12;20;11;15
1579120827712;10;20;12;19;12;20;11;15
1579120828724;10;20;12;19;12;20;11;15
1579120829734;10;20;12;19;12;20;11;15
1579120830717;11;21;12;19;12;20;11;15
1579120831697;11;21;12;19;12;20;11;15
1579120832698;11;21;12;19;12;20;11;15
1579120833709;11;21;12;20;12;20;11;15
1579120834724;11;21;12;21;12;20;11;15
1579120835685;11;21;12;21;10;20;11;15
1579120836719;11;21;12;21;10;20;11;15
1579120837712;11;21;12;21;10;20;11;15
1579120838715;11;21;12;21;10;20;11;15
1579120839719;11;21;12;21;10;20;11;15
1579120840723;11;21;12;21;10;20;11;15
1579120841732;11;21;12;21;11;21;11;15
1579120842764;11;21;12;21;11;21;11;16
1579120843715;11;21;12;21;11;21;11;16
1579120844716;11;21;12;21;11;21;11;16
1579120845716;11;21;12;21;11;21;11;16
1579120846706;11;21;12;21;11;21;11;16
1579120847728;11;21;12;21;11;21;11;16
1579120848707;11;21;12;21;11;21;11;16
1579120849695;11;21;12;21;11;21;11;16
1579120850712;11;21;12;21;11;21;11;16
1579120851719;11;21;12;21;11;21;11;16
1579120852699;11;21;12;21;11;21;11;16
1579120853715;11;21;12;21;11;21;11;16
1579120854718;11;21;12;21;11;21;11;16
1579120855722;11;21;12;21;11;21;11;16
1579120856700;11;21;12;21;11;21;11;16
1579120857700;11;21;12;21;11;21;11;16
1579120858710;11;21;12;21;11;21;11;16
1579120859694;11;21;12;21;11;21;11;16
1579120860725;11;21;12;21;11;21;11;16
1579120861699;10;21;12;21;11;21;11;16
1579120862698;10;21;12;21;11;21;11;16
1579120863704;10;21;12;21;11;21;11;16
1579120864729;10;21;12;21;11;21;11;16
1579120865727;10;21;12;21;11;21;11;16
1579120866723;10;21;11;21;11;21;11;16
1579120867831;12;23;10;21;11;21;11;16
1579120868716;12;23;10;21;11;21;11;16
1579120869732;12;23;10;21;11;21;11;16
1579120870695;12;23;10;21;11;21;11;16
1579120871700;12;23;10;21;11;21;11;16
1579120872687;12;23;10;21;10;21;11;16
1579120873731;12;23;11;22;10;21;11;16
1579120874745;12;23;11;22;10;21;11;16
1579120875733;12;23;11;22;10;21;11;17
1579120876717;12;23;11;22;10;21;11;17
1579120877710;12;23;11;22;10;21;11;17
1579120878716;12;23;11;22;12;23;11;17
1579120879699;12;23;11;22;12;23;11;17
1579120880722;12;23;11;22;12;23;11;17
1579120881720;12;23;11;22;12;23;11;17
1579120882699;12;23;11;22;12;23;11;17
1579120883705;12;23;11;22;12;23;11;17
1579120884689;12;23;11;22;12;23;11;17
1579120885701;12;23;11;22;12;23;11;17
1579120886712;12;23;11;22;12;23;11;17
1579120887718;12;23;11;22;12;23;11;17
1579120888715;12;23;11;22;12;23;11;17
1579120889722;12;23;11;22;12;23;11;17
1579120890703;12;23;11;22;12;23;11;17
1579120891706;12;23;11;22;12;23;11;17
1579120892823;12;23;11;22;12;23;11;17
1579120893703;12;23;11;22;12;23;11;17
1579120894705;12;23;11;22;12;23;11;17
1579120895704;12;23;11;22;12;23;11;17
1579120896697;12;23;11;22;12;23;11;17
1579120897708;12;23;11;22;12;23;11;17
1579120898699;12;23;11;22;12;23;11;17
1579120899703;12;23;11;22;12;23;11;17
1579120900691;12;25;11;22;12;23;11;17
1579120901692;12;25;11;22;12;23;11;17
1579120902709;12;25;11;22;12;23;11;17
1579120903698;12;25;11;22;12;23;11;17
1579120904721;12;25;10;22;12;23;11;17
1579120905706;12;25;10;22;12;23;11;17
1579120906698;12;25;10;22;12;23;11;17
1579120907718;12;25;10;22;12;23;11;17
1579120908681;12;25;10;22;12;23;11;18
1579120909709;12;25;10;22;12;23;11;18
1579120910712;12;25;12;24;12;23;11;18
1579120911725;12;25;12;24;12;25;11;18
1579120912696;12;25;12;24;12;25;11;18
1579120913705;12;25;12;24;12;25;11;18
1579120914747;12;25;12;24;12;25;11;18
1579120915720;12;25;12;24;12;25;11;18
1579120916707;12;25;12;24;12;25;11;18
1579120917690;12;25;12;24;12;25;11;18
1579120918691;12;25;12;24;12;25;11;18
1579120919704;12;25;12;24;12;25;11;18
1579120920702;12;25;12;24;12;25;11;18
1579120921691;12;25;12;24;12;25;11;18
1579120922699;12;25;12;24;12;25;11;18
1579120923705;12;25;12;24;12;25;11;18
1579120924690;12;25;12;24;12;25;11;18
1579120925694;12;25;12;24;12;25;11;18
1579120926699;12;25;12;24;12;25;11;18
1579120927697;12;25;12;24;12;25;11;18
1579120928700;12;25;12;24;12;25;11;18
1579120929701;12;25;12;24;12;25;11;18
1579120930722;12;25;12;24;12;25;11;18
1579120931692;12;25;12;24;12;25;11;18
1579120932694;12;25;12;24;12;25;11;18
1579120933703;12;27;12;24;12;25;11;18
1579120934714;12;27;12;24;12;25;11;18
1579120935717;12;27;12;24;12;25;11;18
1579120936710;12;27;12;24;12;25;11;18
1579120937719;12;27;12;24;12;25;11;18
1579120938714;12;27;12;24;12;25;11;18
1579120939706;12;27;12;24;12;25;11;18
1579120940711;12;27;12;24;12;25;11;18
1579120941687;12;27;12;24;12;25;11;19
1579120942691;12;27;12;24;12;25;11;19
1579120943720;12;27;12;26;12;25;11;19
1579120944704;12;27;12;26;12;27;11;19
1579120945702;12;27;12;26;12;27;11;19
1579120946708;12;27;12;26;12;27;11;19
1579120947699;12;27;12;26;12;27;11;19
1579120949269;12;27;12;26;12;27;11;19
1579120950293;12;27;12;26;12;27;11;19
1579120951568;12;27;12;26;12;27;11;19
1579120951898;12;27;12;26;12;27;11;19
1579120952704;12;27;12;26;12;27;11;19
1579120953710;12;27;12;26;12;27;11;19
1579120954717;12;27;12;26;12;27;11;19
1579120955697;12;27;12;26;12;27;11;19
1579120956726;12;27;12;26;12;27;11;19
1579120957684;12;27;12;26;12;27;11;19
1579120958697;12;27;12;26;12;27;11;19
1579120959695;12;27;12;26;12;27;11;19
1579120960695;12;27;12;26;12;27;11;19
1579120961697;12;27;12;26;12;27;11;19
1579120962690;12;27;12;26;12;27;11;19
1579120963694;12;27;12;26;12;27;11;19
1579120964691;12;27;12;26;12;27;11;19
1579120965686;12;27;12;26;12;27;11;19
1579120966693;12;29;12;26;12;27;11;19
1579120967692;12;29;12;26;12;27;11;19
