Time;SERVICE1;SERVICE1 Sum;SERVICE2;SERVICE2 Sum;SERVICE3;SERVICE3 Sum;AUTH;AUTH Sum
1579037703731;0;0;0;0;0;0;0;0
1579037704722;0;0;0;0;0;0;10;10
1579037705729;0;0;0;0;0;0;10;10
1579037706725;0;0;0;0;0;0;10;10
1579037707745;0;0;0;0;0;0;10;10
1579037708740;0;0;0;0;0;0;10;10
1579037709745;0;0;10;10;0;0;10;10
1579037710758;0;0;10;10;0;0;10;10
1579037711741;0;0;10;10;0;0;10;10
1579037712739;0;0;10;10;0;0;10;10
1579037713790;0;0;10;10;10;10;10;10
1579037714851;0;0;10;10;10;10;10;10
1579037715799;0;0;10;10;10;10;10;10
1579037716800;0;0;10;10;10;10;10;10
1579037717779;10;10;10;10;10;10;10;10
1579037718778;10;10;10;10;10;10;10;10
1579037719797;10;10;10;10;10;10;10;10
1579037720780;10;10;10;10;10;10;10;10
1579037721784;10;10;10;10;10;10;10;10
1579037722789;10;10;10;10;10;10;10;10
1579037723786;10;10;10;10;10;10;10;10
1579037724761;10;10;10;10;10;10;10;10
1579037725767;10;10;10;10;10;10;10;10
1579037726757;10;10;10;10;10;10;10;10
1579037727773;10;10;10;10;10;10;10;10
1579037728786;10;10;10;10;10;10;10;10
1579037729761;10;10;10;10;10;10;10;10
1579037730763;10;10;10;10;10;10;10;10
1579037731781;10;10;10;10;10;10;10;10
1579037732766;10;10;10;10;10;10;10;10
1579037733766;10;10;10;10;10;10;10;10
1579037734771;10;10;10;10;10;10;10;10
1579037735760;10;10;10;10;10;10;10;10
1579037736792;10;10;10;10;10;10;10;10
1579037737759;10;10;10;10;10;10;10;10
1579037738764;10;10;10;10;10;10;10;10
1579037739769;10;10;10;10;10;10;10;10
1579037740766;10;10;10;10;10;10;10;10
1579037741792;10;10;10;10;10;10;10;10
1579037742748;10;10;10;10;10;10;10;10
1579037743760;10;10;10;10;10;10;10;10
1579037744764;10;10;10;10;10;10;10;10
1579037745765;10;10;10;10;10;10;10;10
1579037746765;10;10;10;10;10;10;10;10
1579037747955;10;10;10;10;10;10;10;10
1579037748792;10;10;10;10;10;10;10;10
1579037749766;10;10;10;10;10;10;10;10
1579037750803;10;10;10;10;10;10;10;10
1579037751762;10;10;10;10;10;10;10;10
1579037752773;10;10;10;10;10;10;10;10
1579037753770;10;10;10;10;10;10;10;10
1579037754764;10;10;10;10;10;10;10;10
1579037755777;10;10;10;10;10;10;10;10
1579037756768;10;10;10;10;10;10;10;10
1579037757769;10;10;10;10;10;10;10;10
1579037758770;10;10;10;10;10;10;10;10
1579037759825;10;10;10;10;10;10;10;10
1579037760770;10;10;10;10;10;10;10;10
1579037761773;10;10;10;10;10;10;10;10
1579037762768;10;10;10;10;10;10;10;10
1579037763756;10;10;10;10;10;10;10;10
1579037764768;10;10;10;10;10;10;10;10
1579037765779;10;10;10;10;10;10;10;10
1579037766780;10;10;10;10;10;10;10;10
1579037767761;10;10;10;10;10;10;10;10
1579037768797;10;10;10;10;10;10;10;10
1579037769758;10;10;10;10;10;10;10;10
1579037770751;10;10;10;10;10;10;10;10
1579037771767;10;10;10;10;10;10;10;10
1579037772779;10;10;10;10;10;10;10;10
1579037773754;10;10;10;10;10;10;10;10
1579037774773;10;10;10;10;10;10;10;10
1579037775773;10;10;10;10;10;10;10;10
1579037776761;10;10;10;10;10;10;10;10
1579037777843;10;10;10;10;10;10;10;10
1579037778763;10;10;10;10;10;10;10;10
1579037779878;10;10;10;10;10;10;10;10
1579037780769;10;10;10;10;10;10;10;10
1579037781772;10;10;10;10;10;10;10;10
1579037782773;10;10;10;10;10;10;10;10
1579037783765;10;10;10;10;10;10;10;10
1579037784764;10;10;10;10;10;10;10;10
1579037785759;10;10;10;10;10;10;10;10
1579037786765;10;10;10;10;10;10;10;10
1579037787764;10;10;10;10;10;10;10;10
1579037788769;10;10;10;10;10;10;10;10
1579037789797;10;10;10;10;10;10;10;10
1579037790755;10;10;10;10;10;10;10;10
1579037791778;10;10;10;10;10;10;10;10
1579037792787;10;10;10;10;10;10;10;10
1579037793780;10;10;10;10;10;10;10;10
1579037794765;10;10;10;10;10;10;10;10
1579037795759;10;10;10;10;10;10;10;10
1579037796791;10;10;10;10;10;10;10;10
1579037797780;10;10;10;10;10;10;10;10
1579037798765;10;10;10;10;10;10;10;10
1579037799771;10;10;10;10;10;10;10;10
1579037800773;10;10;10;10;10;10;10;10
1579037801789;10;10;10;10;10;10;10;10
1579037802784;10;10;10;10;10;10;10;10
1579037803775;10;10;10;10;10;10;10;10
1579037804780;12;12;10;10;10;10;10;10
1579037805772;12;12;10;10;10;10;10;10
1579037806787;12;12;10;10;10;10;10;10
1579037807771;12;12;10;10;10;10;10;10
1579037808769;12;12;10;10;10;10;10;10
1579037809782;12;12;11;11;10;10;10;10
1579037810952;12;12;11;11;10;10;10;10
1579037811781;12;12;11;11;10;10;10;10
1579037812783;12;12;11;11;10;10;10;10
1579037813778;12;12;11;11;10;10;10;10
1579037814783;12;12;11;11;12;12;10;10
1579037815820;12;12;11;11;12;12;10;10
1579037816784;12;12;11;11;12;12;10;10
1579037817770;12;12;11;11;12;12;10;10
1579037818792;12;12;11;11;12;12;10;10
1579037819787;12;12;11;11;12;12;11;11
1579037820770;12;12;11;11;12;12;11;11
1579037821780;12;12;11;11;12;12;11;11
1579037822775;12;12;11;11;12;12;11;11
1579037823795;12;12;11;11;12;12;11;11
1579037824782;12;12;11;11;12;12;11;11
1579037825814;12;12;11;11;12;12;11;11
1579037826797;12;12;11;11;12;12;11;11
1579037828632;12;12;11;11;12;12;11;11
1579037829594;12;12;11;11;12;12;11;11
1579037830456;12;12;11;11;12;12;11;11
1579037831277;12;12;11;11;12;12;11;11
1579037831810;12;12;11;11;12;12;11;11
1579037832799;12;12;11;11;12;12;11;11
1579037833782;12;12;11;11;12;12;11;11
1579037834777;12;12;11;11;12;12;11;11
1579037835811;12;12;11;11;12;12;11;11
1579037836770;12;12;11;11;12;12;11;11
1579037837782;12;14;11;11;12;12;11;11
1579037838881;12;14;11;11;12;12;11;11
1579037839863;12;14;11;11;12;12;11;11
1579037840776;12;14;10;11;12;12;11;11
1579037841781;12;14;10;11;12;12;11;11
1579037842965;12;14;10;11;12;12;11;11
1579037843782;12;14;10;11;12;12;11;11
1579037844814;12;14;10;11;12;12;11;11
1579037845782;12;14;10;11;12;12;11;11
1579037846784;12;14;12;13;12;12;11;11
1579037847777;12;14;12;13;12;14;11;11
1579037848805;12;14;12;13;12;14;11;11
1579037849787;12;14;12;13;12;14;11;11
1579037850814;12;14;12;13;12;14;10;11
1579037851764;12;14;12;13;12;14;10;11
1579037852761;12;14;12;13;12;14;10;11
1579037853768;12;14;12;13;12;14;10;11
1579037854763;12;14;12;13;12;14;10;11
1579037855755;12;14;12;13;12;14;10;11
1579037856774;12;14;12;13;12;14;11;12
1579037857775;12;14;12;13;12;14;11;12
1579037858786;12;14;12;13;12;14;11;12
1579037859763;12;14;12;13;12;14;11;12
1579037860767;12;14;12;13;12;14;11;12
1579037861825;12;14;12;13;12;14;11;12
1579037862768;12;14;12;13;12;14;11;12
1579037863796;12;14;12;13;12;14;11;12
1579037864781;12;14;12;13;12;14;11;12
1579037865766;12;14;12;13;12;14;11;12
1579037866759;12;14;12;13;12;14;11;12
1579037867770;12;14;12;13;12;14;11;12
1579037868762;12;14;12;13;12;14;11;12
1579037869768;12;14;12;13;12;14;11;12
1579037870787;12;16;12;13;12;14;11;12
1579037871807;12;16;12;13;12;14;11;12
1579037872803;12;16;12;13;12;14;11;12
1579037873765;12;16;12;13;12;14;11;12
1579037874761;12;16;12;13;12;14;11;12
1579037875769;12;16;12;13;12;14;11;12
1579037876764;12;16;12;13;12;14;11;12
1579037877793;12;16;12;13;12;14;11;12
1579037878770;12;16;12;13;12;14;11;12
1579037879772;12;16;12;15;12;14;11;12
1579037880769;12;16;12;15;12;16;11;12
1579037881759;12;16;12;15;12;16;11;12
1579037882776;12;16;12;15;12;16;11;12
1579037883788;12;16;12;15;12;16;11;12
1579037884759;12;16;12;15;12;16;11;12
1579037885769;12;16;12;15;12;16;11;12
1579037886757;12;16;12;15;12;16;11;12
1579037887760;12;16;12;15;12;16;11;12
1579037888795;12;16;12;15;12;16;11;12
1579037889823;12;16;12;15;12;16;11;13
1579037890768;12;16;12;15;12;16;11;13
1579037891789;12;16;12;15;12;16;11;13
1579037892760;12;16;12;15;12;16;11;13
1579037893755;12;16;12;15;12;16;11;13
1579037894761;12;16;12;15;12;16;11;13
1579037895773;12;16;12;15;12;16;11;13
1579037896760;12;16;12;15;12;16;11;13
1579037897774;12;16;12;15;12;16;11;13
1579037898779;12;16;12;15;12;16;11;13
1579037899769;12;16;12;15;12;16;11;13
1579037900760;12;16;12;15;12;16;11;13
1579037901776;12;16;12;15;12;16;11;13
1579037902782;12;16;12;15;12;16;11;13
1579037903757;12;18;12;15;12;16;11;13
1579037904763;12;18;12;15;12;16;11;13
1579037905779;12;18;12;15;12;16;11;13
1579037906766;12;18;12;15;12;16;11;13
1579037907831;12;18;12;15;12;16;11;13
1579037908758;12;18;12;15;12;16;11;13
1579037909787;12;18;12;15;12;16;11;13
1579037910765;12;18;12;15;12;16;11;13
1579037911778;12;18;12;15;12;16;11;13
1579037912783;12;18;12;17;12;16;11;13
1579037913782;12;18;12;17;12;17;11;13
1579037914785;12;18;12;17;12;18;11;13
1579037915780;12;18;12;17;12;18;11;13
1579037916760;12;18;12;17;12;18;11;13
1579037917774;12;18;12;17;12;18;11;13
1579037918792;12;18;12;17;12;18;11;13
1579037919779;12;18;12;17;12;18;11;13
1579037920851;12;18;12;17;12;18;11;13
1579037921753;12;18;12;17;12;18;11;13
1579037922762;12;18;12;17;12;18;11;14
1579037923771;12;18;12;17;12;18;11;14
1579037924749;12;18;12;17;12;18;11;14
1579037925767;12;18;12;17;12;18;11;14
1579037926764;12;18;12;17;12;18;11;14
1579037927918;12;18;12;17;12;18;11;14
1579037928757;12;18;12;17;12;18;11;14
1579037929814;12;18;12;17;12;18;11;14
1579037930775;12;18;12;17;12;18;11;14
1579037931770;12;18;12;17;12;18;11;14
1579037932769;12;18;12;17;12;18;11;14
1579037933773;12;18;12;17;12;18;11;14
1579037934761;12;18;12;17;12;18;11;14
1579037935759;12;18;12;17;12;18;11;14
1579037936779;12;20;12;17;12;18;11;14
1579037937754;12;20;12;17;12;18;11;14
1579037938754;12;20;12;17;12;18;11;14
1579037939771;12;20;12;17;12;18;11;14
1579037940774;12;20;12;17;12;18;11;14
1579037941751;12;20;12;17;12;18;11;14
1579037942755;12;20;12;17;12;18;11;14
1579037943773;12;20;12;17;12;18;11;14
1579037944773;12;20;12;17;12;18;11;14
1579037945790;12;20;12;19;12;18;11;14
1579037946777;12;20;12;19;12;19;11;14
1579037947752;12;20;12;19;12;20;11;14
1579037948778;12;20;12;19;12;20;11;14
1579037949767;12;20;12;19;12;20;11;14
1579037950763;12;20;12;19;12;20;11;14
1579037951767;12;20;12;19;12;20;11;14
1579037952762;12;20;12;19;12;20;11;14
1579037953762;12;20;12;19;12;20;11;14
1579037954767;12;20;12;19;12;20;11;14
1579037955761;12;20;12;19;12;20;11;15
1579037956753;12;20;12;19;12;20;11;15
1579037957755;12;20;12;19;12;20;11;15
1579037958757;12;20;12;19;12;20;11;15
1579037959802;12;20;12;19;12;20;11;15
1579037960763;12;20;12;19;12;20;11;15
1579037961758;12;20;12;19;12;20;11;15
1579037962755;12;20;12;19;12;20;11;15
1579037963770;12;20;12;19;12;20;11;15
1579037964758;12;20;12;19;12;20;11;15
1579037965766;12;20;12;19;12;20;11;15
1579037966821;12;20;12;19;12;20;11;15
1579037967797;12;20;12;19;12;20;11;15
1579037968757;12;20;12;19;12;20;11;15
1579037969771;10;20;12;19;12;20;11;15
1579037970758;10;20;12;19;12;20;11;15
1579037971771;10;20;12;19;12;20;11;15
1579037972773;10;20;12;19;12;20;11;15
1579037973752;10;20;12;19;12;20;11;15
1579037974767;10;20;12;19;12;20;11;15
1579037975802;11;21;12;19;12;20;11;15
1579037977149;11;21;12;19;12;20;11;15
1579037978439;11;21;12;19;12;20;11;15
1579037979818;11;21;12;21;12;20;11;15
1579037980577;11;21;12;21;10;20;11;15
1579037980904;11;21;12;21;10;20;11;15
1579037981787;11;21;12;21;10;20;11;15
1579037982798;11;21;12;21;10;20;11;15
1579037983774;11;21;12;21;10;20;11;15
1579037984793;11;21;12;21;10;20;11;15
1579037985804;11;21;12;21;10;20;11;15
1579037986788;11;21;12;21;11;21;11;15
1579037987771;11;21;12;21;11;21;11;15
1579037988767;11;21;12;21;11;21;11;16
1579037989764;11;21;12;21;11;21;11;16
1579037990759;11;21;12;21;11;21;11;16
1579037991758;11;21;12;21;11;21;11;16
1579037992749;11;21;12;21;11;21;11;16
1579037993796;11;21;12;21;11;21;11;16
1579037994782;11;21;12;21;11;21;11;16
1579037995764;11;21;12;21;11;21;11;16
1579037996753;11;21;12;21;11;21;11;16
1579037997749;11;21;12;21;11;21;11;16
1579037998808;11;21;12;21;11;21;11;16
1579037999759;11;21;12;21;11;21;11;16
1579038000761;11;21;12;21;11;21;11;16
1579038001766;11;21;12;21;11;21;11;16
1579038002762;11;21;12;21;11;21;11;16
1579038003773;11;21;12;21;11;21;11;16
1579038004759;11;21;12;21;11;21;11;16
1579038005757;11;21;12;21;11;21;11;16
1579038006766;10;21;12;21;11;21;11;16
1579038007774;10;21;12;21;11;21;11;16
1579038008747;10;21;12;21;11;21;11;16
1579038009758;10;21;12;21;11;21;11;16
1579038010767;10;21;12;21;11;21;11;16
1579038011773;10;21;10;21;11;21;11;16
1579038012767;12;23;10;21;11;21;11;16
1579038013800;12;23;10;21;11;21;11;16
1579038014770;12;23;10;21;11;21;11;16
1579038015764;12;23;10;21;11;21;11;16
1579038016769;12;23;10;21;11;21;11;16
1579038017760;12;23;11;22;10;21;11;16
1579038018786;12;23;11;22;10;21;11;16
1579038019754;12;23;11;22;10;21;11;16
1579038020761;12;23;11;22;10;21;11;16
1579038021778;12;23;11;22;10;21;11;17
1579038022781;12;23;11;22;10;21;11;17
1579038023784;12;23;11;22;12;23;11;17
1579038024751;12;23;11;22;12;23;11;17
1579038025753;12;23;11;22;12;23;11;17
1579038026768;12;23;11;22;12;23;11;17
1579038027753;12;23;11;22;12;23;11;17
1579038028836;12;23;11;22;12;23;11;17
1579038029779;12;23;11;22;12;23;11;17
1579038030771;12;23;11;22;12;23;11;17
1579038031748;12;23;11;22;12;23;11;17
1579038032755;12;23;11;22;12;23;11;17
1579038033750;12;23;11;22;12;23;11;17
1579038034777;12;23;11;22;12;23;11;17
1579038035788;12;23;11;22;12;23;11;17
1579038036747;12;23;11;22;12;23;11;17
1579038037752;12;23;11;22;12;23;11;17
1579038038773;12;23;11;22;12;23;11;17
1579038039777;12;23;11;22;12;23;11;17
1579038040757;12;23;11;22;12;23;11;17
1579038041761;12;23;11;22;12;23;11;17
1579038042772;12;23;11;22;12;23;11;17
1579038043753;12;23;11;22;12;23;11;17
1579038044750;12;23;11;22;12;23;11;17
1579038045758;12;25;11;22;12;23;11;17
1579038046759;12;25;11;22;12;23;11;17
1579038047769;12;25;11;22;12;23;11;17
1579038048793;12;25;10;22;12;23;11;17
1579038049828;12;25;10;22;12;23;11;17
1579038050772;12;25;10;22;12;23;11;17
1579038051754;12;25;10;22;12;23;11;17
1579038052756;12;25;10;22;12;23;11;17
1579038053809;12;25;10;22;12;23;11;18
1579038054767;12;25;12;24;12;23;11;18
1579038055768;12;25;12;24;12;23;11;18
1579038056771;12;25;12;24;12;24;11;18
1579038057760;12;25;12;24;12;25;11;18
1579038058782;12;25;12;24;12;25;11;18
1579038059781;12;25;12;24;12;25;11;18
1579038060768;12;25;12;24;12;25;11;18
1579038061773;12;25;12;24;12;25;11;18
1579038062761;12;25;12;24;12;25;11;18
1579038063760;12;25;12;24;12;25;11;18
1579038064757;12;25;12;24;12;25;11;18
1579038065778;12;25;12;24;12;25;11;18
1579038066789;12;25;12;24;12;25;11;18
1579038067753;12;25;12;24;12;25;11;18
1579038068774;12;25;12;24;12;25;11;18
1579038069764;12;25;12;24;12;25;11;18
1579038070791;12;25;12;24;12;25;11;18
1579038071749;12;25;12;24;12;25;11;18
1579038072763;12;25;12;24;12;25;11;18
1579038073749;12;25;12;24;12;25;11;18
1579038074756;12;25;12;24;12;25;11;18
1579038075753;12;25;12;24;12;25;11;18
1579038076758;12;25;12;24;12;25;11;18
1579038077748;12;25;12;24;12;25;11;18
1579038078751;12;27;12;24;12;25;11;18
1579038079755;12;27;12;24;12;25;11;18
1579038080792;12;27;12;24;12;25;11;18
1579038081748;12;27;12;24;12;25;11;18
1579038082752;12;27;12;24;12;25;11;18
1579038083752;12;27;12;24;12;25;11;18
1579038084752;12;27;12;24;12;25;11;18
1579038085744;12;27;12;24;12;25;11;18
1579038086756;12;27;12;24;12;25;11;19
1579038087770;12;27;12;26;12;25;11;19
1579038088754;12;27;12;26;12;25;11;19
1579038089772;12;27;12;26;12;26;11;19
1579038090756;12;27;12;26;12;27;11;19
1579038091745;12;27;12;26;12;27;11;19
1579038092744;12;27;12;26;12;27;11;19
1579038093744;12;27;12;26;12;27;11;19
1579038094783;12;27;12;26;12;27;11;19
1579038095746;12;27;12;26;12;27;11;19
1579038096751;12;27;12;26;12;27;11;19
1579038097778;12;27;12;26;12;27;11;19
1579038098762;12;27;12;26;12;27;11;19
1579038099778;12;27;12;26;12;27;11;19
1579038100746;12;27;12;26;12;27;11;19
1579038101743;12;27;12;26;12;27;11;19
1579038102759;12;27;12;26;12;27;11;19
1579038103752;12;27;12;26;12;27;11;19
1579038104768;12;27;12;26;12;27;11;19
1579038105749;12;27;12;26;12;27;11;19
1579038106755;12;27;12;26;12;27;11;19
1579038107752;12;27;12;26;12;27;11;19
1579038108748;12;27;12;26;12;27;11;19
1579038109750;12;27;12;26;12;27;11;19
1579038110763;12;27;12;26;12;27;11;19
1579038111744;12;29;12;26;12;27;11;19
1579038112753;12;29;12;26;12;27;11;19
