2020-01-16 21:50:00.346  INFO 1 --- [           main] com.pbh.master.service3.Application      : Starting Application on 0d3d9bff364d with PID 1 (/app.jar started by root in /)
2020-01-16 21:50:00.362  INFO 1 --- [           main] com.pbh.master.service3.Application      : No active profile set, falling back to default profiles: default
2020-01-16 21:50:03.791  INFO 1 --- [           main] c.pbh.master.shared.SharedConfiguration  : GRACEFUL_SHUTDOWN is true in 600
2020-01-16 21:50:03.798  INFO 1 --- [           main] c.pbh.master.shared.SharedConfiguration  : RETRY             is false
2020-01-16 21:50:03.809  INFO 1 --- [           main] c.pbh.master.shared.SharedConfiguration  : DNS-TTL           is null
2020-01-16 21:50:04.440  INFO 1 --- [           main] com.pbh.master.shared.TomcatCustomizer   : ####################################################################################
2020-01-16 21:50:04.441  INFO 1 --- [           main] com.pbh.master.shared.TomcatCustomizer   : # Keepalive = true
2020-01-16 21:50:04.442  INFO 1 --- [           main] com.pbh.master.shared.TomcatCustomizer   : # maxKeepAliveRequests 100
2020-01-16 21:50:04.444  INFO 1 --- [           main] com.pbh.master.shared.TomcatCustomizer   : # keepalive timeout: 60000 ms
2020-01-16 21:50:04.444  INFO 1 --- [           main] com.pbh.master.shared.TomcatCustomizer   : # connection timeout: 60000 ms
2020-01-16 21:50:04.444  INFO 1 --- [           main] com.pbh.master.shared.TomcatCustomizer   : # max connections: 10000
2020-01-16 21:50:04.445  INFO 1 --- [           main] com.pbh.master.shared.TomcatCustomizer   : ####################################################################################
2020-01-16 21:50:04.539  INFO 1 --- [           main] o.s.b.w.embedded.tomcat.TomcatWebServer  : Tomcat initialized with port(s): 8080 (http)
2020-01-16 21:50:04.565  INFO 1 --- [           main] o.apache.catalina.core.StandardService   : Starting service [Tomcat]
2020-01-16 21:50:04.565  INFO 1 --- [           main] org.apache.catalina.core.StandardEngine  : Starting Servlet engine: [Apache Tomcat/9.0.27]
2020-01-16 21:50:04.755  INFO 1 --- [           main] o.a.c.c.C.[Tomcat].[localhost].[/]       : Initializing Spring embedded WebApplicationContext
2020-01-16 21:50:04.756  INFO 1 --- [           main] o.s.web.context.ContextLoader            : Root WebApplicationContext: initialization completed in 4138 ms
2020-01-16 21:50:05.136  INFO 1 --- [           main] c.pbh.master.shared.SharedConfiguration  : Configure retry
2020-01-16 21:50:05.284  INFO 1 --- [           main] o.s.s.concurrent.ThreadPoolTaskExecutor  : Initializing ExecutorService 'applicationTaskExecutor'
2020-01-16 21:50:05.595  INFO 1 --- [           main] o.s.b.w.embedded.tomcat.TomcatWebServer  : Tomcat started on port(s): 8080 (http) with context path ''
2020-01-16 21:50:05.600  INFO 1 --- [           main] com.pbh.master.service3.Application      : Started Application in 7.929 seconds (JVM running for 9.724)
2020-01-16 21:50:26.118  INFO 1 --- [nio-8080-exec-1] o.a.c.c.C.[Tomcat].[localhost].[/]       : Initializing Spring DispatcherServlet 'dispatcherServlet'
2020-01-16 21:50:26.119  INFO 1 --- [nio-8080-exec-1] o.s.web.servlet.DispatcherServlet        : Initializing Servlet 'dispatcherServlet'
2020-01-16 21:50:26.141  INFO 1 --- [nio-8080-exec-1] o.s.web.servlet.DispatcherServlet        : Completed initialization in 22 ms
