2020-01-17 20:16:00.707  INFO 1 --- [           main] com.pbh.master.service2.Application      : Starting Application on 46df14ec6e70 with PID 1 (/app.jar started by root in /)
2020-01-17 20:16:00.720  INFO 1 --- [           main] com.pbh.master.service2.Application      : No active profile set, falling back to default profiles: default
2020-01-17 20:16:02.849  INFO 1 --- [           main] c.pbh.master.shared.SharedConfiguration  : GRACEFUL_SHUTDOWN is false in 30
2020-01-17 20:16:02.852  INFO 1 --- [           main] c.pbh.master.shared.SharedConfiguration  : RETRY             is false
2020-01-17 20:16:02.858  INFO 1 --- [           main] c.pbh.master.shared.SharedConfiguration  : DNS-TTL           is null
2020-01-17 20:16:03.166  INFO 1 --- [           main] com.pbh.master.shared.TomcatCustomizer   : ####################################################################################
2020-01-17 20:16:03.175  INFO 1 --- [           main] com.pbh.master.shared.TomcatCustomizer   : # Keepalive = true
2020-01-17 20:16:03.175  INFO 1 --- [           main] com.pbh.master.shared.TomcatCustomizer   : # maxKeepAliveRequests 100
2020-01-17 20:16:03.180  INFO 1 --- [           main] com.pbh.master.shared.TomcatCustomizer   : # keepalive timeout: 60000 ms
2020-01-17 20:16:03.181  INFO 1 --- [           main] com.pbh.master.shared.TomcatCustomizer   : # connection timeout: 60000 ms
2020-01-17 20:16:03.181  INFO 1 --- [           main] com.pbh.master.shared.TomcatCustomizer   : # max connections: 10000
2020-01-17 20:16:03.182  INFO 1 --- [           main] com.pbh.master.shared.TomcatCustomizer   : ####################################################################################
2020-01-17 20:16:03.247  INFO 1 --- [           main] o.s.b.w.embedded.tomcat.TomcatWebServer  : Tomcat initialized with port(s): 8080 (http)
2020-01-17 20:16:03.283  INFO 1 --- [           main] o.apache.catalina.core.StandardService   : Starting service [Tomcat]
2020-01-17 20:16:03.288  INFO 1 --- [           main] org.apache.catalina.core.StandardEngine  : Starting Servlet engine: [Apache Tomcat/9.0.27]
2020-01-17 20:16:03.452  INFO 1 --- [           main] o.a.c.c.C.[Tomcat].[localhost].[/]       : Initializing Spring embedded WebApplicationContext
2020-01-17 20:16:03.453  INFO 1 --- [           main] o.s.web.context.ContextLoader            : Root WebApplicationContext: initialization completed in 2534 ms
2020-01-17 20:16:03.787  INFO 1 --- [           main] c.pbh.master.shared.SharedConfiguration  : Configure retry
2020-01-17 20:16:04.311  INFO 1 --- [           main] o.s.s.concurrent.ThreadPoolTaskExecutor  : Initializing ExecutorService 'applicationTaskExecutor'
2020-01-17 20:16:04.910  INFO 1 --- [           main] o.s.b.w.embedded.tomcat.TomcatWebServer  : Tomcat started on port(s): 8080 (http) with context path ''
2020-01-17 20:16:04.925  INFO 1 --- [           main] com.pbh.master.service2.Application      : Started Application in 6.5 seconds (JVM running for 7.278)
2020-01-17 20:16:27.872  INFO 1 --- [nio-8080-exec-1] o.a.c.c.C.[Tomcat].[localhost].[/]       : Initializing Spring DispatcherServlet 'dispatcherServlet'
2020-01-17 20:16:27.873  INFO 1 --- [nio-8080-exec-1] o.s.web.servlet.DispatcherServlet        : Initializing Servlet 'dispatcherServlet'
2020-01-17 20:16:27.889  INFO 1 --- [nio-8080-exec-1] o.s.web.servlet.DispatcherServlet        : Completed initialization in 16 ms
