HOSTNAME=ip-172-30-1-52.eu-west-1.compute.internal
SHLVL=1
HOME=/root
TEST_HOST=Master-1295839893.eu-west-1.elb.amazonaws.com
JAVA_VERSION=12-ea+29
JMETER_ENV=-Rec2-34-242-135-37.eu-west-1.compute.amazonaws.com:1099,ec2-52-214-216-85.eu-west-1.compute.amazonaws.com:1099,ec2-52-211-127-6.eu-west-1.compute.amazonaws.com:1099,ec2-34-254-182-29.eu-west-1.compute.amazonaws.com:1099,ec2-34-241-76-223.eu-west-1.compute.amazonaws.com:1099 -X -Jserver.rmi.ssl.disable=true -Jclient.rmi.localport=60000 -Jmode=StrippedBatch
JAVA_URL=https://download.java.net/java/early_access/alpine/29/binaries/openjdk-12-ea+29_linux-x64-musl_bin.tar.gz
TEST_THREADS=100
TEST_RAMP_UP_SECONDS=30
PATH=/opt/openjdk-12/bin:/usr/local/sbin:/usr/local/bin:/usr/sbin:/usr/bin:/sbin:/bin
JVM_ARGS=-Xms2G -Xmx3G
TEST_DURATION=300
JAVA_HOME=/opt/openjdk-12
PWD=/usr/local/apache-jmeter-5.2.1/bin
IP=ec2-52-51-75-15.eu-west-1.compute.amazonaws.com
JAVA_SHA256=39c22481736ae8a054fc820ad0cc3f1d9ad3f3f00d8111775573fe6d04c18bf5
Jan 19, 2020 3:22:41 PM java.util.prefs.FileSystemPreferences$1 run
INFO: Created user preferences directory.
Warning: Nashorn engine is planned to be removed from a future JDK release
Creating summariser <summary>
Created the tree successfully using Master-test.jmx
Configuring remote engine: ec2-34-242-135-37.eu-west-1.compute.amazonaws.com:1099
Configuring remote engine: ec2-52-214-216-85.eu-west-1.compute.amazonaws.com:1099
Configuring remote engine: ec2-52-211-127-6.eu-west-1.compute.amazonaws.com:1099
Configuring remote engine: ec2-34-254-182-29.eu-west-1.compute.amazonaws.com:1099
Configuring remote engine: ec2-34-241-76-223.eu-west-1.compute.amazonaws.com:1099
Starting distributed test with remote engines: [ec2-52-214-216-85.eu-west-1.compute.amazonaws.com:1099, ec2-34-241-76-223.eu-west-1.compute.amazonaws.com:1099, ec2-34-242-135-37.eu-west-1.compute.amazonaws.com:1099, ec2-34-254-182-29.eu-west-1.compute.amazonaws.com:1099, ec2-52-211-127-6.eu-west-1.compute.amazonaws.com:1099] @ Sun Jan 19 15:22:42 GMT 2020 (1579447362394)
Warning: Nashorn engine is planned to be removed from a future JDK release
Remote engines have been started:[ec2-52-214-216-85.eu-west-1.compute.amazonaws.com:1099, ec2-34-241-76-223.eu-west-1.compute.amazonaws.com:1099, ec2-34-242-135-37.eu-west-1.compute.amazonaws.com:1099, ec2-34-254-182-29.eu-west-1.compute.amazonaws.com:1099, ec2-52-211-127-6.eu-west-1.compute.amazonaws.com:1099]
Waiting for possible Shutdown/StopTestNow/HeapDump/ThreadDump message on port 4445
summary +    706 in 00:00:17 =   42.1/s Avg:   367 Min:     8 Max:  1940 Err:     2 (0.28%) Active: 264 Started: 255 Finished: 0
summary +   6600 in 00:00:30 =  221.3/s Avg:   434 Min:     2 Max: 10003 Err:    13 (0.20%) Active: 500 Started: 491 Finished: 0
summary =   7306 in 00:00:47 =  156.8/s Avg:   428 Min:     2 Max: 10003 Err:    15 (0.21%)
summary +   7600 in 00:00:31 =  248.7/s Avg:   428 Min:     0 Max: 10004 Err:    11 (0.14%) Active: 500 Started: 491 Finished: 0
summary =  14906 in 00:01:17 =  193.2/s Avg:   428 Min:     0 Max: 10004 Err:    26 (0.17%)
summary +   7400 in 00:00:29 =  252.1/s Avg:   497 Min:     1 Max: 66535 Err:    20 (0.27%) Active: 500 Started: 491 Finished: 0
summary =  22306 in 00:01:47 =  209.4/s Avg:   451 Min:     0 Max: 66535 Err:    46 (0.21%)
summary +   7700 in 00:00:30 =  254.0/s Avg:   508 Min:     2 Max: 65734 Err:    24 (0.31%) Active: 500 Started: 491 Finished: 0
summary =  30006 in 00:02:17 =  219.3/s Avg:   465 Min:     0 Max: 66535 Err:    70 (0.23%)
summary +   7500 in 00:00:31 =  244.0/s Avg:   526 Min:     1 Max: 129989 Err:    32 (0.43%) Active: 500 Started: 491 Finished: 0
summary =  37506 in 00:02:48 =  223.8/s Avg:   478 Min:     0 Max: 129989 Err:   102 (0.27%)
summary +   7400 in 00:00:30 =  250.7/s Avg:   451 Min:     1 Max: 66041 Err:     8 (0.11%) Active: 500 Started: 491 Finished: 0
summary =  44906 in 00:03:17 =  227.9/s Avg:   473 Min:     0 Max: 129989 Err:   110 (0.24%)
summary +   7500 in 00:00:30 =  247.7/s Avg:   550 Min:     0 Max: 66007 Err:    30 (0.40%) Active: 500 Started: 491 Finished: 0
summary =  52406 in 00:03:47 =  230.5/s Avg:   484 Min:     0 Max: 129989 Err:   140 (0.27%)
summary +   7500 in 00:00:29 =  255.0/s Avg:   492 Min:     1 Max: 66486 Err:    24 (0.32%) Active: 500 Started: 491 Finished: 0
summary =  59906 in 00:04:17 =  233.3/s Avg:   485 Min:     0 Max: 129989 Err:   164 (0.27%)
summary +   7500 in 00:00:30 =  252.2/s Avg:   458 Min:     1 Max: 66243 Err:    25 (0.33%) Active: 500 Started: 491 Finished: 0
summary =  67406 in 00:04:47 =  235.3/s Avg:   482 Min:     0 Max: 129989 Err:   189 (0.28%)
summary +   4232 in 00:01:15 =   56.1/s Avg:   733 Min:     1 Max: 66180 Err:    22 (0.52%) Active: 0 Started: 491 Finished: 500
summary =  71638 in 00:06:02 =  197.9/s Avg:   497 Min:     0 Max: 129989 Err:   211 (0.29%)
Tidying up remote @ Sun Jan 19 15:28:45 GMT 2020 (1579447725469)
Exiting remote servers:[ClientJMeterEngine [hostAndPort=ec2-52-214-216-85.eu-west-1.compute.amazonaws.com:1099], ClientJMeterEngine [hostAndPort=ec2-34-241-76-223.eu-west-1.compute.amazonaws.com:1099], ClientJMeterEngine [hostAndPort=ec2-34-242-135-37.eu-west-1.compute.amazonaws.com:1099], ClientJMeterEngine [hostAndPort=ec2-34-254-182-29.eu-west-1.compute.amazonaws.com:1099], ClientJMeterEngine [hostAndPort=ec2-52-211-127-6.eu-west-1.compute.amazonaws.com:1099]]
Exiting remote server:ClientJMeterEngine [hostAndPort=ec2-52-214-216-85.eu-west-1.compute.amazonaws.com:1099]
Exiting remote server:ClientJMeterEngine [hostAndPort=ec2-34-241-76-223.eu-west-1.compute.amazonaws.com:1099]
Exiting remote server:ClientJMeterEngine [hostAndPort=ec2-34-242-135-37.eu-west-1.compute.amazonaws.com:1099]
Exiting remote server:ClientJMeterEngine [hostAndPort=ec2-34-254-182-29.eu-west-1.compute.amazonaws.com:1099]
Exiting remote server:ClientJMeterEngine [hostAndPort=ec2-52-211-127-6.eu-west-1.compute.amazonaws.com:1099]
... end of run
