Time;SERVICE1;SERVICE1 Sum;SERVICE2;SERVICE2 Sum;SERVICE3;SERVICE3 Sum;AUTH;AUTH Sum
1579446765265;0;0;0;0;0;0;0;0
1579446766254;0;0;0;0;0;0;10;10
1579446767251;0;0;0;0;0;0;10;10
1579446768248;0;0;0;0;0;0;10;10
1579446769275;0;0;0;0;0;0;10;10
1579446770270;0;0;0;0;0;0;10;10
1579446771296;0;0;10;10;0;0;10;10
1579446772293;0;0;10;10;0;0;10;10
1579446773326;0;0;10;10;0;0;10;10
1579446774289;0;0;10;10;0;0;10;10
1579446775279;0;0;10;10;0;0;10;10
1579446776328;0;0;10;10;10;10;10;10
1579446777364;0;0;10;10;10;10;10;10
1579446778411;0;0;10;10;10;10;10;10
1579446779326;0;0;10;10;10;10;10;10
1579446780329;10;10;10;10;10;10;10;10
1579446781354;10;10;10;10;10;10;10;10
1579446782370;10;10;10;10;10;10;10;10
1579446783319;10;10;10;10;10;10;10;10
1579446784326;10;10;10;10;10;10;10;10
1579446785323;10;10;10;10;10;10;10;10
1579446786331;10;10;10;10;10;10;10;10
1579446787303;10;10;10;10;10;10;10;10
1579446788327;10;10;10;10;10;10;10;10
1579446789308;10;10;10;10;10;10;10;10
1579446790310;10;10;10;10;10;10;10;10
1579446791310;10;10;10;10;10;10;10;10
1579446792298;10;10;10;10;10;10;10;10
1579446793313;10;10;10;10;10;10;10;10
1579446794347;10;10;10;10;10;10;10;10
1579446795307;10;10;10;10;10;10;10;10
1579446796294;10;10;10;10;10;10;10;10
1579446797344;10;10;10;10;10;10;10;10
1579446798310;10;10;10;10;10;10;10;10
1579446799334;10;10;10;10;10;10;10;10
1579446800324;10;10;10;10;10;10;10;10
1579446801328;10;10;10;10;10;10;10;10
1579446802335;10;10;10;10;10;10;10;10
1579446803309;10;10;10;10;10;10;10;10
1579446804356;10;10;10;10;10;10;10;10
1579446805408;10;10;10;10;10;10;10;10
1579446806301;10;10;10;10;10;10;10;10
1579446807321;10;10;10;10;10;10;10;10
1579446808337;10;10;10;10;10;10;10;10
1579446809815;10;10;10;10;10;10;10;10
1579446810320;10;10;10;10;10;10;10;10
1579446811333;10;10;10;10;10;10;10;10
1579446812314;10;10;10;10;10;10;10;10
1579446813313;10;10;10;10;10;10;10;10
1579446814297;10;10;10;10;10;10;10;10
1579446815301;10;10;10;10;10;10;10;10
1579446816297;10;10;10;10;10;10;10;10
1579446817307;10;10;10;10;10;10;10;10
1579446818305;10;10;10;10;10;10;10;10
1579446819300;10;10;10;10;10;10;10;10
1579446820296;10;10;10;10;10;10;10;10
1579446821305;10;10;10;10;10;10;10;10
1579446822299;10;10;10;10;10;10;10;10
1579446823320;10;10;10;10;10;10;10;10
1579446824325;10;10;10;10;10;10;10;10
1579446825297;10;10;10;10;10;10;10;10
1579446826299;10;10;10;10;10;10;10;10
1579446827300;10;10;10;10;10;10;10;10
1579446828316;10;10;10;10;10;10;10;10
1579446829298;10;10;10;10;10;10;10;10
1579446830290;10;10;10;10;10;10;10;10
1579446831300;10;10;10;10;10;10;10;10
1579446832352;10;10;10;10;10;10;10;10
1579446833318;10;10;10;10;10;10;10;10
1579446834324;10;10;10;10;10;10;10;10
1579446835293;10;10;10;10;10;10;10;10
1579446836311;10;10;10;10;10;10;10;10
1579446837384;10;10;10;10;10;10;10;10
1579446838322;10;10;10;10;10;10;10;10
1579446839296;10;10;10;10;10;10;10;10
1579446840326;10;10;10;10;10;10;10;10
1579446841309;10;10;10;10;10;10;10;10
1579446842309;10;10;10;10;10;10;10;10
1579446843304;10;10;10;10;10;10;10;10
1579446844334;10;10;10;10;10;10;10;10
1579446845326;10;10;10;10;10;10;10;10
1579446846299;10;10;10;10;10;10;10;10
1579446847301;10;10;10;10;10;10;10;10
1579446848301;10;10;10;10;10;10;10;10
1579446849286;10;10;10;10;10;10;10;10
1579446850295;10;10;10;10;10;10;10;10
1579446851300;10;10;10;10;10;10;10;10
1579446852312;10;10;10;10;10;10;10;10
1579446853312;10;10;10;10;10;10;10;10
1579446854314;10;10;10;10;10;10;10;10
1579446855296;10;10;10;10;10;10;10;10
1579446856307;10;10;10;10;10;10;10;10
1579446857303;10;10;10;10;10;10;10;10
1579446858313;10;10;10;10;10;10;10;10
1579446859340;10;10;10;10;10;10;10;10
1579446860298;10;10;10;10;10;10;10;10
1579446861318;10;10;10;10;10;10;10;10
1579446862292;10;10;10;10;10;10;10;10
1579446863303;10;10;10;10;10;10;10;10
1579446864328;10;10;10;10;10;10;10;10
1579446865298;10;10;10;10;10;10;10;10
1579446866326;10;10;10;10;10;10;10;10
1579446867294;10;10;10;10;10;10;10;10
1579446868317;10;10;10;10;10;10;10;10
1579446869324;9;10;10;10;10;10;10;10
1579446870303;9;10;10;10;10;10;10;10
1579446871319;9;10;10;10;10;10;10;10
1579446872318;9;10;10;10;10;10;10;10
1579446873316;9;10;10;10;10;10;10;10
1579446874920;10;11;9;10;10;10;10;10
1579446875309;10;11;9;10;10;10;10;10
1579446876312;10;11;9;10;10;10;10;10
1579446877319;10;11;9;10;10;10;10;10
1579446878306;10;11;9;10;10;10;10;10
1579446879314;10;11;10;11;9;10;10;10
1579446880323;10;11;10;11;9;10;10;10
1579446881317;10;11;10;11;9;10;10;10
1579446882327;10;11;10;11;9;10;10;10
1579446883326;10;11;10;11;9;10;10;10
1579446884317;10;11;10;11;10;11;9;10
1579446885327;10;11;10;11;10;11;9;10
1579446886325;10;11;10;11;10;11;9;10
1579446887300;10;11;10;11;10;11;9;10
1579446888326;10;11;10;11;10;11;9;10
1579446889311;10;11;10;11;10;11;10;11
1579446890312;10;11;10;11;10;11;10;11
1579446891337;10;11;10;11;10;11;10;11
1579446892320;10;11;10;11;10;11;10;11
1579446893317;10;11;10;11;10;11;10;11
1579446894314;10;11;10;11;10;11;10;11
1579446895301;9;11;10;11;10;11;10;11
1579446896322;9;11;10;11;10;11;10;11
1579446897312;9;11;10;11;10;11;10;11
1579446898309;9;11;10;11;10;11;10;11
1579446899325;9;11;10;11;10;11;10;11
1579446900299;10;12;10;11;10;11;10;11
1579446901313;10;12;10;11;10;11;10;11
1579446902310;10;12;10;11;10;11;10;11
1579446903315;10;12;10;11;10;11;10;11
1579446904321;10;12;10;11;10;11;10;11
1579446905329;10;12;10;11;10;11;10;11
1579446906321;10;12;9;11;10;11;10;11
1579446907305;10;12;9;11;10;11;10;11
1579446908303;10;12;9;11;10;11;10;11
1579446909297;10;12;9;11;10;11;10;11
1579446910318;10;12;9;11;10;11;10;11
1579446911301;10;12;10;12;9;11;10;11
1579446912326;10;12;10;12;9;11;10;11
1579446913324;10;12;10;12;9;11;10;11
1579446914320;10;12;10;12;9;11;10;11
1579446915339;10;12;10;12;9;11;10;11
1579446916303;10;12;10;12;10;12;9;11
1579446917298;10;12;10;12;10;12;9;11
1579446918322;10;12;10;12;10;12;9;11
1579446919297;10;12;10;12;10;12;9;11
1579446920299;10;12;10;12;10;12;9;11
1579446921312;10;12;10;12;10;12;10;12
1579446922294;10;12;10;12;10;12;10;12
1579446923282;10;12;10;12;10;12;10;12
1579446924318;10;12;10;12;10;12;10;12
1579446925317;10;12;10;12;10;12;10;12
1579446926334;10;12;10;12;10;12;10;12
1579446927314;9;12;10;12;10;12;10;12
1579446928300;9;12;10;12;10;12;10;12
1579446929310;9;12;10;12;10;12;10;12
1579446930648;9;12;10;12;10;12;10;12
1579446932240;10;13;10;12;10;12;10;12
1579446933486;10;13;10;12;10;12;10;12
1579446935022;10;13;10;12;10;12;10;12
1579446935678;10;13;10;12;10;12;10;12
1579446936090;10;13;10;12;10;12;10;12
1579446936449;10;13;10;12;10;12;10;12
1579446937334;10;13;10;12;10;12;10;12
1579446938314;10;13;9;12;10;12;10;12
1579446939314;10;13;9;12;10;12;10;12
1579446940323;10;13;9;12;10;12;10;12
1579446941318;10;13;9;12;10;12;10;12
1579446942296;10;13;9;12;10;12;10;12
1579446943310;10;13;10;13;9;12;10;12
1579446944312;10;13;10;13;9;12;10;12
1579446945288;10;13;10;13;9;12;10;12
1579446946325;10;13;10;13;9;12;10;12
1579446947307;10;13;10;13;9;12;10;12
1579446948337;10;13;10;13;10;13;9;12
1579446949296;10;13;10;13;10;13;9;12
1579446950358;10;13;10;13;10;13;9;12
1579446951497;10;13;10;13;10;13;9;12
1579446952441;10;13;10;13;10;13;9;12
1579446953354;10;13;10;13;10;13;10;13
1579446954381;10;13;10;13;10;13;10;13
1579446955356;10;13;10;13;10;13;10;13
1579446956371;10;13;10;13;10;13;10;13
1579446957316;10;13;10;13;10;13;10;13
1579446958311;10;13;10;13;10;13;10;13
1579446959309;9;13;10;13;10;13;10;13
1579446960293;9;13;10;13;10;13;10;13
1579446961319;9;13;10;13;10;13;10;13
1579446962318;9;13;10;13;10;13;10;13
1579446963327;9;13;10;13;10;13;10;13
1579446964313;10;14;10;13;10;13;10;13
1579446965315;10;14;10;13;10;13;10;13
1579446966303;10;14;10;13;10;13;10;13
1579446967312;10;14;10;13;10;13;10;13
1579446968291;10;14;10;13;10;13;10;13
1579446969331;10;14;10;13;10;13;10;13
1579446970323;10;14;9;13;10;13;10;13
1579446971306;10;14;9;13;10;13;10;13
1579446972308;10;14;9;13;10;13;10;13
1579446973290;10;14;9;13;10;13;10;13
1579446974305;10;14;9;13;10;13;9;13
1579446975299;10;14;10;14;9;13;9;13
1579446976313;10;14;10;14;9;13;9;13
1579446977306;10;14;10;14;9;13;9;13
1579446978304;10;14;10;14;9;13;9;13
1579446979301;10;14;10;14;9;13;10;14
1579446980297;10;14;10;14;10;14;10;14
1579446981288;10;14;10;14;10;14;10;14
1579446982316;10;14;10;14;10;14;10;14
1579446983322;10;14;10;14;10;14;10;14
1579446984309;10;14;10;14;10;14;10;14
1579446985294;10;14;10;14;10;14;10;14
1579446986301;10;14;10;14;10;14;10;14
1579446987301;10;14;10;14;10;14;10;14
1579446988300;10;14;10;14;10;14;10;14
1579446989300;10;14;10;14;10;14;10;14
1579446990441;10;14;10;14;10;14;10;14
1579446991298;9;14;10;14;10;14;10;14
1579446992303;9;14;10;14;10;14;10;14
1579446993309;9;14;10;14;10;14;10;14
1579446994316;9;14;10;14;10;14;10;14
1579446995317;9;14;10;14;10;14;10;14
1579446996287;10;15;9;14;10;14;10;14
1579446997322;10;15;9;14;10;14;10;14
1579446998317;10;15;9;14;10;14;10;14
1579446999338;10;15;9;14;10;14;10;14
1579447000324;10;15;9;14;10;14;10;14
1579447001328;10;15;10;15;10;14;10;14
1579447002310;10;15;10;15;10;14;10;14
1579447003334;10;15;10;15;10;14;10;14
1579447004315;10;15;10;15;10;14;10;14
1579447005287;10;15;10;15;10;14;10;14
1579447006300;10;15;10;15;10;14;9;14
1579447007305;10;15;10;15;9;14;9;14
1579447008296;10;15;10;15;9;14;9;14
1579447009302;10;15;10;15;9;14;9;14
1579447010302;10;15;10;15;9;14;9;14
1579447011297;10;15;10;15;9;14;10;15
1579447012299;10;15;10;15;10;15;10;15
1579447013296;10;15;10;15;10;15;10;15
1579447014301;10;15;10;15;10;15;10;15
1579447015319;10;15;10;15;10;15;10;15
1579447016375;10;15;10;15;10;15;10;15
1579447017316;10;15;10;15;10;15;10;15
1579447018303;10;15;10;15;10;15;10;15
1579447019298;10;15;10;15;10;15;10;15
1579447020441;10;15;10;15;10;15;10;15
1579447021456;10;15;10;15;10;15;10;15
1579447022464;10;15;10;15;10;15;10;15
1579447023406;9;15;10;15;10;15;10;15
1579447024475;9;15;10;15;10;15;10;15
1579447025519;9;15;10;15;10;15;10;15
1579447026423;9;15;10;15;10;15;10;15
1579447027498;9;15;10;15;10;15;10;15
1579447028536;10;16;9;15;10;15;10;15
1579447029492;10;16;9;15;10;15;10;15
1579447030368;10;16;9;15;10;15;10;15
1579447031386;10;16;9;15;10;15;10;15
1579447032462;10;16;9;15;10;15;10;15
1579447033418;10;16;10;16;10;15;10;15
1579447034558;10;16;10;16;10;15;10;15
1579447035460;10;16;10;16;10;15;10;15
1579447036457;10;16;10;16;10;15;10;15
1579447037320;10;16;10;16;10;15;10;15
1579447038330;10;16;10;16;10;15;9;15
1579447039314;10;16;10;16;9;15;9;15
1579447040328;10;16;10;16;9;15;9;15
1579447041317;10;16;10;16;9;15;9;15
1579447042308;10;16;10;16;9;15;9;15
1579447043316;10;16;10;16;9;15;10;16
1579447044314;10;16;10;16;10;16;10;16
1579447045347;10;16;10;16;10;16;10;16
1579447046352;10;16;10;16;10;16;10;16
1579447047310;10;16;10;16;10;16;10;16
1579447048317;10;16;10;16;10;16;10;16
1579447049320;9;16;10;16;10;16;10;16
1579447050307;9;16;10;16;10;16;10;16
1579447051309;9;16;10;16;10;16;10;16
1579447052320;9;16;10;16;10;16;10;16
1579447053284;9;16;10;16;10;16;10;16
1579447054292;10;17;10;16;10;16;10;16
1579447055293;10;17;10;16;10;16;10;16
1579447056296;10;17;10;16;10;16;10;16
1579447057289;10;17;10;16;10;16;10;16
1579447058286;10;17;10;16;10;16;10;16
1579447059309;10;17;10;16;10;16;10;16
1579447060293;10;17;9;16;10;16;10;16
1579447061290;10;17;9;16;10;16;10;16
1579447062300;10;17;9;16;10;16;10;16
1579447063309;10;17;9;16;10;16;10;16
1579447064295;10;17;9;16;10;16;10;16
1579447065306;10;17;10;17;10;16;10;16
1579447066300;10;17;10;17;10;16;10;16
1579447067324;10;17;10;17;10;16;10;16
1579447068300;10;17;10;17;10;16;10;16
1579447069305;10;17;10;17;10;16;10;16
1579447070305;10;17;10;17;10;16;9;16
1579447071319;10;17;10;17;9;16;9;16
1579447072299;10;17;10;17;9;16;9;16
1579447073306;10;17;10;17;9;16;9;16
1579447074275;10;17;10;17;9;16;9;16
1579447075381;10;17;10;17;9;16;10;17
1579447076304;10;17;10;17;10;17;10;17
1579447077354;10;17;10;17;10;17;10;17
1579447078307;10;17;10;17;10;17;10;17
1579447079301;10;17;10;17;10;17;10;17
1579447080306;10;17;10;17;10;17;10;17
1579447081301;9;17;10;17;10;17;10;17
1579447082329;9;17;10;17;10;17;10;17
1579447083312;9;17;10;17;10;17;10;17
1579447084319;9;17;10;17;10;17;10;17
1579447085309;9;17;10;17;10;17;10;17
1579447086336;10;18;10;17;10;17;10;17
1579447087296;10;18;10;17;10;17;10;17
1579447088298;10;18;10;17;10;17;10;17
1579447089304;10;18;10;17;10;17;10;17
1579447090286;10;18;10;17;10;17;10;17
1579447091288;10;18;10;17;10;17;10;17
1579447092305;10;18;9;17;10;17;10;17
1579447093309;10;18;9;17;10;17;10;17
1579447094293;10;18;9;17;10;17;10;17
1579447095293;10;18;9;17;10;17;10;17
1579447096297;10;18;9;17;10;17;9;17
1579447097300;10;18;10;18;10;17;9;17
1579447098294;10;18;10;18;10;17;9;17
1579447099289;10;18;10;18;10;17;9;17
1579447100270;10;18;10;18;10;17;9;17
1579447101273;10;18;10;18;10;17;10;18
1579447102275;10;18;10;18;10;17;10;18
1579447103280;10;18;10;18;9;17;10;18
1579447104318;10;18;10;18;9;17;10;18
1579447105281;10;18;10;18;9;17;10;18
1579447106282;10;18;10;18;9;17;10;18
1579447107297;10;18;10;18;9;17;10;18
1579447108269;10;18;10;18;10;18;10;18
1579447109289;10;18;10;18;10;18;10;18
1579447110276;10;18;10;18;10;18;10;18
1579447111287;10;18;10;18;10;18;10;18
1579447112313;10;18;10;18;10;18;10;18
1579447113287;9;18;10;18;10;18;10;18
1579447114267;9;18;10;18;10;18;10;18
1579447115256;9;18;10;18;10;18;10;18
1579447116275;9;18;10;18;10;18;10;18
1579447117279;9;18;10;18;10;18;10;18
1579447118286;10;19;10;18;10;18;10;18
1579447119278;10;19;10;18;10;18;10;18
1579447120284;10;19;10;18;10;18;10;18
1579447121277;10;19;10;18;10;18;10;18
1579447122284;10;19;10;18;10;18;10;18
1579447123287;10;19;10;18;10;18;10;18
1579447124275;10;19;9;18;10;18;10;18
1579447125284;10;19;9;18;10;18;10;18
1579447126274;10;19;9;18;10;18;10;18
1579447127287;10;19;9;18;10;18;10;18
1579447128267;10;19;9;18;10;18;9;18
1579447129270;10;19;10;19;10;18;9;18
1579447130267;10;19;10;19;10;18;9;18
1579447131278;10;19;10;19;10;18;9;18
1579447132274;10;19;10;19;10;18;9;18
1579447133272;10;19;10;19;10;18;10;19
1579447134340;10;19;10;19;10;18;10;19
1579447135269;10;19;10;19;9;18;10;19
1579447136260;10;19;10;19;9;18;10;19
1579447137279;10;19;10;19;9;18;10;19
1579447138262;10;19;10;19;9;18;10;19
1579447139286;10;19;10;19;9;18;10;19
1579447140286;10;19;10;19;10;19;10;19
1579447141274;10;19;10;19;10;19;10;19
1579447142267;10;19;10;19;10;19;10;19
1579447143265;10;19;10;19;10;19;10;19
1579447144255;10;19;10;19;10;19;10;19
1579447145267;9;19;10;19;10;19;10;19
1579447146259;9;19;10;19;10;19;10;19
1579447147265;9;19;10;19;10;19;10;19
1579447148265;9;19;10;19;10;19;10;19
1579447149276;9;19;10;19;10;19;10;19
1579447150282;10;20;10;19;10;19;10;19
1579447151273;10;20;10;19;10;19;10;19
1579447152264;10;20;10;19;10;19;10;19
1579447153264;10;20;10;19;10;19;10;19
1579447154261;10;20;10;19;10;19;9;19
1579447155245;10;20;10;19;10;19;9;19
1579447156261;10;20;9;19;10;19;9;19
1579447157266;10;20;9;19;10;19;9;19
1579447158259;10;20;9;19;10;19;9;19
1579447159285;10;20;9;19;10;19;10;20
1579447160282;10;20;9;19;10;19;10;20
1579447161251;10;20;10;20;10;19;10;20
1579447162274;10;20;10;20;10;19;10;20
1579447163264;10;20;10;20;10;19;10;20
1579447164258;10;20;10;20;10;19;10;20
1579447165272;10;20;10;20;10;19;10;20
1579447166257;10;20;10;20;10;19;10;20
1579447167279;10;20;10;20;9;19;10;20
1579447168269;10;20;10;20;9;19;10;20
1579447169294;10;20;10;20;9;19;10;20
1579447170250;10;20;10;20;9;19;10;20
1579447171276;10;20;10;20;9;19;10;20
1579447172258;10;20;10;20;10;20;10;20
1579447173260;10;20;10;20;10;20;10;20
1579447174277;10;20;10;20;10;20;10;20
1579447175252;10;20;10;20;10;20;10;20
1579447176265;10;20;10;20;10;20;10;20
1579447177259;9;20;10;20;10;20;10;20
1579447178267;9;20;10;20;10;20;10;20
1579447179260;9;20;10;20;10;20;10;20
1579447180256;9;20;10;20;10;20;10;20
1579447181254;9;20;9;20;10;20;10;20
1579447182278;10;21;9;20;10;20;10;20
1579447183253;10;21;9;20;10;20;10;20
1579447184256;10;21;9;20;10;20;10;20
1579447185252;10;21;9;20;10;20;10;20
1579447186270;10;21;10;21;10;20;9;20
1579447187260;10;21;10;21;10;20;9;20
1579447188261;10;21;10;21;10;20;9;20
1579447189248;10;21;10;21;10;20;9;20
1579447190250;10;21;10;21;10;20;9;20
1579447191259;10;21;10;21;10;20;10;21
1579447192299;10;21;10;21;9;20;10;21
1579447193266;10;21;10;21;9;20;10;21
1579447194275;10;21;10;21;9;20;10;21
1579447195291;10;21;10;21;9;20;10;21
1579447196301;10;21;10;21;9;20;10;21
1579447197261;10;21;10;21;9;20;10;21
1579447198255;10;21;10;21;10;21;10;21
1579447199259;10;21;10;21;10;21;10;21
1579447200257;10;21;10;21;10;21;10;21
1579447201266;10;21;10;21;10;21;10;21
1579447202264;10;21;10;21;10;21;10;21
1579447203269;9;21;10;21;10;21;10;21
1579447204254;9;21;10;21;10;21;10;21
1579447205296;9;21;10;21;10;21;10;21
1579447206276;9;21;10;21;10;21;10;21
1579447207289;9;21;10;21;10;21;10;21
1579447208253;10;22;10;21;10;21;10;21
1579447209255;10;22;10;21;10;21;10;21
1579447210270;10;22;10;21;10;21;10;21
1579447211247;10;22;10;21;10;21;10;21
1579447212272;10;22;9;21;10;21;9;21
1579447213244;10;22;9;21;10;21;9;21
1579447214258;10;22;9;21;10;21;9;21
1579447215276;10;22;9;21;10;21;9;21
1579447216281;10;22;9;21;10;21;10;22
1579447217283;10;22;10;22;10;21;10;22
1579447218266;10;22;10;22;10;21;10;22
1579447219291;10;22;10;22;10;21;10;22
1579447220280;10;22;10;22;10;21;10;22
1579447221260;10;22;10;22;10;21;10;22
