2020-01-16 22:09:28.057  INFO 1 --- [           main] com.pbh.master.service2.Application      : Starting Application on 62add0ef169c with PID 1 (/app.jar started by root in /)
2020-01-16 22:09:28.104  INFO 1 --- [           main] com.pbh.master.service2.Application      : No active profile set, falling back to default profiles: default
2020-01-16 22:09:33.645  INFO 1 --- [           main] c.pbh.master.shared.SharedConfiguration  : GRACEFUL_SHUTDOWN is true in 600
2020-01-16 22:09:33.647  INFO 1 --- [           main] c.pbh.master.shared.SharedConfiguration  : RETRY             is false
2020-01-16 22:09:33.705  INFO 1 --- [           main] c.pbh.master.shared.SharedConfiguration  : DNS-TTL           is null
2020-01-16 22:09:34.672  INFO 1 --- [           main] com.pbh.master.shared.TomcatCustomizer   : ####################################################################################
2020-01-16 22:09:34.673  INFO 1 --- [           main] com.pbh.master.shared.TomcatCustomizer   : # Keepalive = true
2020-01-16 22:09:34.674  INFO 1 --- [           main] com.pbh.master.shared.TomcatCustomizer   : # maxKeepAliveRequests 100
2020-01-16 22:09:34.676  INFO 1 --- [           main] com.pbh.master.shared.TomcatCustomizer   : # keepalive timeout: 60000 ms
2020-01-16 22:09:34.676  INFO 1 --- [           main] com.pbh.master.shared.TomcatCustomizer   : # connection timeout: 60000 ms
2020-01-16 22:09:34.677  INFO 1 --- [           main] com.pbh.master.shared.TomcatCustomizer   : # max connections: 10000
2020-01-16 22:09:34.677  INFO 1 --- [           main] com.pbh.master.shared.TomcatCustomizer   : ####################################################################################
2020-01-16 22:09:34.807  INFO 1 --- [           main] o.s.b.w.embedded.tomcat.TomcatWebServer  : Tomcat initialized with port(s): 8080 (http)
2020-01-16 22:09:34.852  INFO 1 --- [           main] o.apache.catalina.core.StandardService   : Starting service [Tomcat]
2020-01-16 22:09:34.854  INFO 1 --- [           main] org.apache.catalina.core.StandardEngine  : Starting Servlet engine: [Apache Tomcat/9.0.27]
2020-01-16 22:09:35.119  INFO 1 --- [           main] o.a.c.c.C.[Tomcat].[localhost].[/]       : Initializing Spring embedded WebApplicationContext
2020-01-16 22:09:35.123  INFO 1 --- [           main] o.s.web.context.ContextLoader            : Root WebApplicationContext: initialization completed in 6563 ms
2020-01-16 22:09:35.476  INFO 1 --- [           main] c.pbh.master.shared.SharedConfiguration  : Configure retry
2020-01-16 22:09:36.123  INFO 1 --- [           main] o.s.s.concurrent.ThreadPoolTaskExecutor  : Initializing ExecutorService 'applicationTaskExecutor'
2020-01-16 22:09:37.169  INFO 1 --- [           main] o.s.b.w.embedded.tomcat.TomcatWebServer  : Tomcat started on port(s): 8080 (http) with context path ''
2020-01-16 22:09:37.193  INFO 1 --- [           main] com.pbh.master.service2.Application      : Started Application in 12.849 seconds (JVM running for 14.832)
2020-01-16 22:09:52.755  INFO 1 --- [nio-8080-exec-1] o.a.c.c.C.[Tomcat].[localhost].[/]       : Initializing Spring DispatcherServlet 'dispatcherServlet'
2020-01-16 22:09:52.755  INFO 1 --- [nio-8080-exec-1] o.s.web.servlet.DispatcherServlet        : Initializing Servlet 'dispatcherServlet'
2020-01-16 22:09:52.775  INFO 1 --- [nio-8080-exec-1] o.s.web.servlet.DispatcherServlet        : Completed initialization in 19 ms
