2020-01-16 22:06:01.026  INFO 1 --- [           main] com.pbh.master.service3.Application      : Starting Application on 70135d116035 with PID 1 (/app.jar started by root in /)
2020-01-16 22:06:01.055  INFO 1 --- [           main] com.pbh.master.service3.Application      : No active profile set, falling back to default profiles: default
2020-01-16 22:06:05.402  INFO 1 --- [           main] c.pbh.master.shared.SharedConfiguration  : GRACEFUL_SHUTDOWN is true in 600
2020-01-16 22:06:05.407  INFO 1 --- [           main] c.pbh.master.shared.SharedConfiguration  : RETRY             is false
2020-01-16 22:06:05.412  INFO 1 --- [           main] c.pbh.master.shared.SharedConfiguration  : DNS-TTL           is null
2020-01-16 22:06:06.120  INFO 1 --- [           main] com.pbh.master.shared.TomcatCustomizer   : ####################################################################################
2020-01-16 22:06:06.121  INFO 1 --- [           main] com.pbh.master.shared.TomcatCustomizer   : # Keepalive = true
2020-01-16 22:06:06.121  INFO 1 --- [           main] com.pbh.master.shared.TomcatCustomizer   : # maxKeepAliveRequests 100
2020-01-16 22:06:06.123  INFO 1 --- [           main] com.pbh.master.shared.TomcatCustomizer   : # keepalive timeout: 60000 ms
2020-01-16 22:06:06.124  INFO 1 --- [           main] com.pbh.master.shared.TomcatCustomizer   : # connection timeout: 60000 ms
2020-01-16 22:06:06.124  INFO 1 --- [           main] com.pbh.master.shared.TomcatCustomizer   : # max connections: 10000
2020-01-16 22:06:06.125  INFO 1 --- [           main] com.pbh.master.shared.TomcatCustomizer   : ####################################################################################
2020-01-16 22:06:06.214  INFO 1 --- [           main] o.s.b.w.embedded.tomcat.TomcatWebServer  : Tomcat initialized with port(s): 8080 (http)
2020-01-16 22:06:06.256  INFO 1 --- [           main] o.apache.catalina.core.StandardService   : Starting service [Tomcat]
2020-01-16 22:06:06.263  INFO 1 --- [           main] org.apache.catalina.core.StandardEngine  : Starting Servlet engine: [Apache Tomcat/9.0.27]
2020-01-16 22:06:06.439  INFO 1 --- [           main] o.a.c.c.C.[Tomcat].[localhost].[/]       : Initializing Spring embedded WebApplicationContext
2020-01-16 22:06:06.440  INFO 1 --- [           main] o.s.web.context.ContextLoader            : Root WebApplicationContext: initialization completed in 4965 ms
2020-01-16 22:06:06.713  INFO 1 --- [           main] c.pbh.master.shared.SharedConfiguration  : Configure retry
2020-01-16 22:06:07.152  INFO 1 --- [           main] o.s.s.concurrent.ThreadPoolTaskExecutor  : Initializing ExecutorService 'applicationTaskExecutor'
2020-01-16 22:06:07.416  INFO 1 --- [           main] o.s.b.w.embedded.tomcat.TomcatWebServer  : Tomcat started on port(s): 8080 (http) with context path ''
2020-01-16 22:06:07.421  INFO 1 --- [           main] com.pbh.master.service3.Application      : Started Application in 9.467 seconds (JVM running for 11.209)
2020-01-16 22:06:26.434  INFO 1 --- [nio-8080-exec-1] o.a.c.c.C.[Tomcat].[localhost].[/]       : Initializing Spring DispatcherServlet 'dispatcherServlet'
2020-01-16 22:06:26.435  INFO 1 --- [nio-8080-exec-1] o.s.web.servlet.DispatcherServlet        : Initializing Servlet 'dispatcherServlet'
2020-01-16 22:06:26.443  INFO 1 --- [nio-8080-exec-1] o.s.web.servlet.DispatcherServlet        : Completed initialization in 8 ms
