Time;SERVICE1;SERVICE1 Sum;SERVICE2;SERVICE2 Sum;SERVICE3;SERVICE3 Sum;AUTH;AUTH Sum
1579212195957;0;0;0;0;0;0;0;0
1579212196996;0;0;0;0;0;0;10;10
1579212197997;0;0;0;0;0;0;10;10
1579212199015;0;0;0;0;0;0;10;10
1579212200001;0;0;0;0;0;0;10;10
1579212201016;0;0;0;0;0;0;10;10
1579212202008;0;0;10;10;0;0;10;10
1579212203016;0;0;10;10;0;0;10;10
1579212204024;0;0;10;10;0;0;10;10
1579212204998;0;0;10;10;0;0;10;10
1579212206026;0;0;10;10;0;0;10;10
1579212207052;0;0;10;10;10;10;10;10
1579212208109;0;0;10;10;10;10;10;10
1579212209058;0;0;10;10;10;10;10;10
1579212210077;0;0;10;10;10;10;10;10
1579212211083;10;10;10;10;10;10;10;10
1579212212064;10;10;10;10;10;10;10;10
1579212213068;10;10;10;10;10;10;10;10
1579212214054;10;10;10;10;10;10;10;10
1579212215045;10;10;10;10;10;10;10;10
1579212216073;10;10;10;10;10;10;10;10
1579212217061;10;10;10;10;10;10;10;10
1579212218041;10;10;10;10;10;10;10;10
1579212219053;10;10;10;10;10;10;10;10
1579212220040;10;10;10;10;10;10;10;10
1579212221041;10;10;10;10;10;10;10;10
1579212222052;10;10;10;10;10;10;10;10
1579212223046;10;10;10;10;10;10;10;10
1579212224037;10;10;10;10;10;10;10;10
1579212225047;10;10;10;10;10;10;10;10
1579212226034;10;10;10;10;10;10;10;10
1579212227056;10;10;10;10;10;10;10;10
1579212228039;10;10;10;10;10;10;10;10
1579212229130;10;10;10;10;10;10;10;10
1579212230079;10;10;10;10;10;10;10;10
1579212231033;10;10;10;10;10;10;10;10
1579212232062;10;10;10;10;10;10;10;10
1579212233036;10;10;10;10;10;10;10;10
1579212234059;10;10;10;10;10;10;10;10
1579212235064;10;10;10;10;10;10;10;10
1579212236046;10;10;10;10;10;10;10;10
1579212237036;10;10;10;10;10;10;10;10
1579212238043;10;10;10;10;10;10;10;10
1579212239035;10;10;10;10;10;10;10;10
1579212240050;10;10;10;10;10;10;10;10
1579212241045;10;10;10;10;10;10;10;10
1579212242044;10;10;10;10;10;10;10;10
1579212243038;10;10;10;10;10;10;10;10
1579212244056;10;10;10;10;10;10;10;10
1579212245034;10;10;10;10;10;10;10;10
1579212246081;10;10;10;10;10;10;10;10
1579212247034;10;10;10;10;10;10;10;10
1579212248044;10;10;10;10;10;10;10;10
1579212249057;10;10;10;10;10;10;10;10
1579212250047;10;10;10;10;10;10;10;10
1579212251051;10;10;10;10;10;10;10;10
1579212252055;10;10;10;10;10;10;10;10
1579212253044;10;10;10;10;10;10;10;10
1579212254040;10;10;10;10;10;10;10;10
1579212255066;10;10;10;10;10;10;10;10
1579212256035;10;10;10;10;10;10;10;10
1579212257051;10;10;10;10;10;10;10;10
1579212258064;10;10;10;10;10;10;10;10
1579212259028;10;10;10;10;10;10;10;10
1579212260048;10;10;10;10;10;10;10;10
1579212261055;10;10;10;10;10;10;10;10
1579212262071;10;10;10;10;10;10;10;10
1579212263058;10;10;10;10;10;10;10;10
1579212264057;10;10;10;10;10;10;10;10
1579212265031;10;10;10;10;10;10;10;10
1579212266034;10;10;10;10;10;10;10;10
1579212267031;10;10;10;10;10;10;10;10
1579212268036;10;10;10;10;10;10;10;10
1579212269053;10;10;10;10;10;10;10;10
1579212270026;10;10;10;10;10;10;10;10
1579212271037;10;10;10;10;10;10;10;10
1579212272037;10;10;10;10;10;10;10;10
1579212273043;10;10;10;10;10;10;10;10
1579212274045;10;10;10;10;10;10;10;10
1579212275041;10;10;10;10;10;10;10;10
1579212276051;10;10;10;10;10;10;10;10
1579212277048;10;10;10;10;10;10;10;10
1579212278036;10;10;10;10;10;10;10;10
1579212279042;10;10;10;10;10;10;10;10
1579212280039;10;10;10;10;10;10;10;10
1579212281046;10;10;10;10;10;10;10;10
1579212282053;10;10;10;10;10;10;10;10
1579212283219;10;10;10;10;10;10;10;10
1579212284032;10;10;10;10;10;10;10;10
1579212285054;10;10;10;10;10;10;10;10
1579212286033;10;10;10;10;10;10;10;10
1579212287034;10;10;10;10;10;10;10;10
1579212288063;10;10;10;10;10;10;10;10
1579212289041;10;10;10;10;10;10;10;10
1579212290041;10;10;10;10;10;10;10;10
1579212291042;10;10;10;10;10;10;10;10
1579212292043;10;10;10;10;10;10;10;10
1579212293205;10;10;10;10;10;10;10;10
1579212294157;10;10;10;10;10;10;10;10
1579212295060;10;10;10;10;10;10;10;10
1579212296032;10;10;10;10;10;10;10;10
1579212297056;10;10;10;10;10;10;10;10
1579212298425;10;10;10;10;10;10;10;10
1579212299240;10;10;10;10;10;10;10;10
1579212300320;10;10;10;10;10;10;10;10
1579212301049;10;10;10;10;10;10;10;10
1579212302484;10;10;10;10;10;10;10;10
1579212303044;10;10;10;10;10;10;10;10
1579212304052;10;10;10;10;10;10;10;10
1579212305045;10;10;10;10;10;10;10;10
1579212306101;10;10;10;10;10;10;10;10
1579212307058;10;10;10;10;10;10;10;10
1579212308036;10;10;10;10;10;10;10;10
1579212309031;10;10;10;10;10;10;10;10
1579212310054;12;12;10;10;10;10;10;10
1579212311054;12;12;10;10;10;10;10;10
1579212312080;12;12;10;10;10;10;10;10
1579212313041;12;12;10;10;10;10;10;10
1579212314075;12;12;10;10;10;10;10;10
1579212315050;12;12;11;11;10;10;10;10
1579212316045;12;12;11;11;10;10;10;10
1579212317073;12;12;11;11;10;10;10;10
1579212318045;12;12;11;11;10;10;10;10
1579212319064;12;12;11;11;10;10;10;10
1579212320061;12;12;11;11;12;12;10;10
1579212321069;12;12;11;11;12;12;10;10
1579212322060;12;12;11;11;12;12;10;10
1579212323119;12;12;11;11;12;12;10;10
1579212324043;12;12;11;11;12;12;10;10
1579212325081;12;12;11;11;12;12;11;11
1579212326107;12;12;11;11;12;12;11;11
1579212327059;12;12;11;11;12;12;11;11
1579212328048;12;12;11;11;12;12;11;11
1579212329078;12;12;11;11;12;12;11;11
1579212330058;12;12;11;11;12;12;11;11
1579212331124;12;12;11;11;12;12;11;11
1579212332074;12;12;11;11;12;12;11;11
1579212333055;12;12;11;11;12;12;11;11
1579212334050;12;12;11;11;12;12;11;11
1579212335047;12;12;11;11;12;12;11;11
1579212336050;12;12;11;11;12;12;11;11
1579212337065;12;12;11;11;12;12;11;11
1579212338110;12;12;11;11;12;12;11;11
1579212339066;12;12;11;11;12;12;11;11
1579212340164;12;12;11;11;12;12;11;11
1579212341064;12;12;11;11;12;12;11;11
1579212342080;12;12;11;11;12;12;11;11
1579212343052;12;14;11;11;12;12;11;11
1579212344048;12;14;11;11;12;12;11;11
1579212345066;12;14;11;11;12;12;11;11
1579212346060;12;14;10;11;12;12;11;11
1579212347038;12;14;10;11;12;12;11;11
1579212348060;12;14;10;11;12;12;11;11
1579212349043;12;14;10;11;12;12;11;11
1579212350072;12;14;10;11;12;12;11;11
1579212351052;12;14;10;11;12;12;11;11
1579212352050;12;14;12;13;12;12;11;11
1579212353062;12;14;12;13;12;12;11;11
1579212354104;12;14;12;13;12;14;11;11
1579212355038;12;14;12;13;12;14;11;11
1579212356064;12;14;12;13;12;14;10;11
1579212357042;12;14;12;13;12;14;10;11
1579212358083;12;14;12;13;12;14;10;11
1579212359235;12;14;12;13;12;14;10;11
1579212360075;12;14;12;13;12;14;10;11
1579212361069;12;14;12;13;12;14;10;11
1579212362044;12;14;12;13;12;14;11;12
1579212363035;12;14;12;13;12;14;11;12
1579212364077;12;14;12;13;12;14;11;12
1579212365048;12;14;12;13;12;14;11;12
1579212366090;12;14;12;13;12;14;11;12
1579212367044;12;14;12;13;12;14;11;12
1579212368058;12;14;12;13;12;14;11;12
1579212369046;12;14;12;13;12;14;11;12
1579212370058;12;14;12;13;12;14;11;12
1579212371050;12;14;12;13;12;14;11;12
1579212372039;12;14;12;13;12;14;11;12
1579212373048;12;14;12;13;12;14;11;12
1579212374045;12;14;12;13;12;14;11;12
1579212375056;12;14;12;13;12;14;11;12
1579212376038;12;16;12;13;12;14;11;12
1579212377058;12;16;12;13;12;14;11;12
1579212378050;12;16;12;13;12;14;11;12
1579212379043;12;16;12;13;12;14;11;12
1579212380125;12;16;12;13;12;14;11;12
1579212381051;12;16;12;13;12;14;11;12
1579212382050;12;16;12;13;12;14;11;12
1579212383025;12;16;12;13;12;14;11;12
1579212384049;12;16;12;13;12;14;11;12
1579212385039;12;16;12;15;12;14;11;12
1579212386035;12;16;12;15;12;15;11;12
1579212387077;12;16;12;15;12;16;11;12
1579212388189;12;16;12;15;12;16;11;12
1579212389045;12;16;12;15;12;16;11;12
1579212390058;12;16;12;15;12;16;11;12
1579212393405;12;16;12;15;12;16;11;12
1579212395576;12;16;12;15;12;16;11;13
1579212395887;12;16;12;15;12;16;11;13
1579212396185;12;16;12;15;12;16;11;13
1579212396473;12;16;12;15;12;16;11;13
1579212396759;12;16;12;15;12;16;11;13
1579212397073;12;16;12;15;12;16;11;13
1579212398056;12;16;12;15;12;16;11;13
1579212399058;12;16;12;15;12;16;11;13
1579212400051;12;16;12;15;12;16;11;13
1579212401032;12;16;12;15;12;16;11;13
1579212402026;12;16;12;15;12;16;11;13
1579212403077;12;16;12;15;12;16;11;13
1579212404195;12;16;12;15;12;16;11;13
1579212405072;12;16;12;15;12;16;11;13
1579212406057;12;16;12;15;12;16;11;13
1579212407031;12;16;12;15;12;16;11;13
1579212408032;12;16;12;15;12;16;11;13
1579212409047;12;18;12;15;12;16;11;13
1579212410301;12;18;12;15;12;16;11;13
1579212411041;12;18;12;15;12;16;11;13
1579212412043;12;18;12;15;12;16;11;13
1579212413084;12;18;12;15;12;16;11;13
1579212414071;12;18;12;15;12;16;11;13
1579212415044;12;18;12;15;12;16;11;13
1579212416050;12;18;12;15;12;16;11;13
1579212417023;12;18;12;15;12;16;11;13
1579212418033;12;18;12;17;12;16;11;13
1579212419077;12;18;12;17;12;16;11;13
1579212420071;12;18;12;17;12;18;11;13
1579212421041;12;18;12;17;12;18;11;13
1579212422034;12;18;12;17;12;18;11;13
1579212423096;12;18;12;17;12;18;11;13
1579212424423;12;18;12;17;12;18;11;13
1579212425061;12;18;12;17;12;18;11;13
1579212426045;12;18;12;17;12;18;11;13
1579212427046;12;18;12;17;12;18;11;13
1579212428040;12;18;12;17;12;18;11;14
1579212429053;12;18;12;17;12;18;11;14
1579212430049;12;18;12;17;12;18;11;14
1579212431132;12;18;12;17;12;18;11;14
1579212432090;12;18;12;17;12;18;11;14
1579212433027;12;18;12;17;12;18;11;14
1579212434051;12;18;12;17;12;18;11;14
1579212435040;12;18;12;17;12;18;11;14
1579212436049;12;18;12;17;12;18;11;14
1579212437054;12;18;12;17;12;18;11;14
1579212438208;12;18;12;17;12;18;11;14
1579212439055;12;18;12;17;12;18;11;14
1579212440052;12;18;12;17;12;18;11;14
1579212441057;12;18;12;17;12;18;11;14
1579212442035;12;19;12;17;12;18;11;14
1579212443043;12;20;12;17;12;18;11;14
1579212444043;12;20;12;17;12;18;11;14
1579212445140;12;20;12;17;12;18;11;14
1579212446062;12;20;12;17;12;18;11;14
1579212447066;12;20;12;17;12;18;11;14
1579212448080;12;20;12;17;12;18;11;14
1579212449060;12;20;12;17;12;18;11;14
1579212450393;12;20;12;18;12;18;11;14
1579212451048;12;20;12;19;12;18;11;14
1579212452035;12;20;12;19;12;18;11;14
1579212453054;12;20;12;19;12;20;11;14
1579212454046;12;20;12;19;12;20;11;14
1579212455052;12;20;12;19;12;20;11;14
1579212456172;12;20;12;19;12;20;11;14
1579212457093;12;20;12;19;12;20;11;14
1579212458067;12;20;12;19;12;20;11;14
1579212459139;12;20;12;19;12;20;11;14
1579212460116;12;20;12;19;12;20;11;14
1579212461107;12;20;12;19;12;20;11;15
1579212462077;12;20;12;19;12;20;11;15
1579212463039;12;20;12;19;12;20;11;15
1579212464030;12;20;12;19;12;20;11;15
1579212465068;12;20;12;19;12;20;11;15
1579212466045;12;20;12;19;12;20;11;15
1579212467063;12;20;12;19;12;20;11;15
1579212468056;12;20;12;19;12;20;11;15
1579212469068;12;20;12;19;12;20;11;15
1579212470043;12;20;12;19;12;20;11;15
1579212471048;12;20;12;19;12;20;11;15
1579212472040;12;20;12;19;12;20;11;15
1579212473042;12;20;12;19;12;20;11;15
1579212474076;12;20;12;19;12;20;11;15
1579212475034;11;20;12;19;12;20;11;15
1579212476744;10;20;12;19;12;20;11;15
1579212477047;10;20;12;19;12;20;11;15
1579212478037;10;20;12;19;12;20;11;15
1579212479031;10;20;12;19;12;20;11;15
1579212480038;10;20;12;19;12;20;11;15
1579212481041;10;20;12;19;12;20;11;15
1579212482041;10;20;12;19;12;20;11;15
1579212483046;11;21;12;19;12;20;11;15
1579212484079;11;21;12;21;12;20;11;15
1579212485123;11;21;12;21;12;20;11;15
1579212486094;11;21;12;21;10;20;11;15
1579212487084;11;21;12;21;10;20;11;15
1579212488087;11;21;12;21;10;20;11;15
1579212489110;11;21;12;21;10;20;11;15
1579212490102;11;21;12;21;10;20;11;15
1579212491215;11;21;12;21;10;20;11;15
1579212492094;11;21;12;21;11;21;11;15
1579212493080;11;21;12;21;11;21;11;15
1579212494046;11;21;12;21;11;21;11;15
1579212495043;11;21;12;21;11;21;11;16
1579212496073;11;21;12;21;11;21;11;16
1579212497056;11;21;12;21;11;21;11;16
1579212498043;11;21;12;21;11;21;11;16
1579212499060;11;21;12;21;11;21;11;16
1579212500051;11;21;12;21;11;21;11;16
1579212501019;11;21;12;21;11;21;11;16
1579212502041;11;21;12;21;11;21;11;16
1579212503034;11;21;12;21;11;21;11;16
1579212504053;11;21;12;21;11;21;11;16
1579212505025;11;21;12;21;11;21;11;16
1579212506021;11;21;12;21;11;21;11;16
1579212507031;11;21;12;21;11;21;11;16
1579212508042;11;21;12;21;11;21;11;16
1579212509035;11;21;12;21;11;21;11;16
1579212510042;11;21;12;21;11;21;11;16
1579212511048;11;21;12;21;11;21;11;16
1579212512046;11;21;12;21;11;21;11;16
1579212513068;11;21;12;21;11;21;11;16
1579212514037;10;21;12;21;11;21;11;16
1579212515079;10;21;12;21;11;21;11;16
1579212516056;10;21;12;21;11;21;11;16
1579212517052;10;21;10;21;11;21;11;16
1579212518042;10;21;10;21;11;21;11;16
1579212519028;10;21;10;21;11;21;11;16
1579212520026;12;23;10;21;11;21;11;16
1579212521037;12;23;10;21;11;21;11;16
1579212522026;12;23;10;21;11;21;11;16
1579212523055;12;23;11;22;10;21;11;16
1579212524074;12;23;11;22;10;21;11;16
1579212525192;12;23;11;22;10;21;11;16
1579212526054;12;23;11;22;10;21;11;16
1579212527055;12;23;11;22;10;21;11;17
1579212528091;12;23;11;22;10;21;11;17
1579212529039;12;23;11;22;12;23;11;17
1579212530040;12;23;11;22;12;23;11;17
1579212531075;12;23;11;22;12;23;11;17
1579212532062;12;23;11;22;12;23;11;17
1579212533039;12;23;11;22;12;23;11;17
1579212534048;12;23;11;22;12;23;11;17
1579212535038;12;23;11;22;12;23;11;17
1579212536027;12;23;11;22;12;23;11;17
1579212537041;12;23;11;22;12;23;11;17
1579212538803;12;23;11;22;12;23;11;17
1579212541395;12;23;11;22;12;23;11;17
1579212541755;12;23;11;22;12;23;11;17
1579212542068;12;23;11;22;12;23;11;17
1579212542370;12;23;11;22;12;23;11;17
1579212543035;12;23;11;22;12;23;11;17
1579212544030;12;23;11;22;12;23;11;17
1579212545084;12;23;11;22;12;23;11;17
1579212546033;12;23;11;22;12;23;11;17
1579212547022;12;23;11;22;12;23;11;17
1579212548082;12;23;11;22;12;23;11;17
1579212549029;12;23;11;22;12;23;11;17
1579212550015;12;23;11;22;12;23;11;17
1579212551038;12;23;11;22;12;23;11;17
1579212552051;12;23;11;22;12;23;11;17
1579212553039;12;25;11;22;12;23;11;17
1579212554032;12;25;10;22;12;23;11;17
1579212555038;12;25;10;22;12;23;11;17
1579212556027;12;25;10;22;12;23;11;17
1579212557041;12;25;10;22;12;23;11;17
1579212558036;12;25;10;22;12;23;11;17
1579212559035;12;25;10;22;12;23;11;17
1579212560031;12;25;12;24;12;23;11;18
1579212561086;12;25;12;24;12;23;11;18
1579212562050;12;25;12;24;12;24;11;18
1579212563033;12;25;12;24;12;25;11;18
1579212564047;12;25;12;24;12;25;11;18
1579212565031;12;25;12;24;12;25;11;18
1579212566064;12;25;12;24;12;25;11;18
1579212567044;12;25;12;24;12;25;11;18
1579212568139;12;25;12;24;12;25;11;18
1579212569044;12;25;12;24;12;25;11;18
1579212570062;12;25;12;24;12;25;11;18
1579212571039;12;25;12;24;12;25;11;18
1579212572041;12;25;12;24;12;25;11;18
1579212573044;12;25;12;24;12;25;11;18
1579212574032;12;25;12;24;12;25;11;18
1579212575055;12;25;12;24;12;25;11;18
1579212576052;12;25;12;24;12;25;11;18
1579212577050;12;25;12;24;12;25;11;18
1579212578018;12;25;12;24;12;25;11;18
1579212579032;12;25;12;24;12;25;11;18
1579212580043;12;25;12;24;12;25;11;18
1579212581058;12;25;12;24;12;25;11;18
1579212582049;12;25;12;24;12;25;11;18
1579212583035;12;25;12;24;12;25;11;18
1579212584035;12;25;12;24;12;25;11;18
1579212585038;12;25;12;24;12;25;11;18
1579212586050;12;27;12;24;12;25;11;18
1579212587068;12;27;12;24;12;25;11;18
1579212588058;12;27;12;24;12;25;11;18
1579212589037;12;27;12;24;12;25;11;18
1579212590046;12;27;12;24;12;25;11;18
1579212591046;12;27;12;24;12;25;11;18
1579212592047;12;27;12;24;12;25;11;18
1579212593035;12;27;12;25;12;25;11;19
1579212594033;12;27;12;26;12;25;11;19
1579212595033;12;27;12;26;11;26;11;19
1579212596058;12;27;12;26;12;27;11;19
1579212597055;12;27;12;26;12;27;11;19
1579212598063;12;27;12;26;12;27;11;19
1579212599044;12;27;12;26;12;27;11;19
1579212600028;12;27;12;26;12;27;11;19
1579212601038;12;27;12;26;12;27;11;19
1579212602014;12;27;12;26;12;27;11;19
1579212603018;12;27;12;26;12;27;11;19
1579212604026;12;27;12;26;12;27;11;19
1579212605102;12;27;12;26;12;27;11;19
1579212606040;12;27;12;26;12;27;11;19
1579212607052;12;27;12;26;12;27;11;19
1579212608025;12;27;12;26;12;27;11;19
1579212609024;12;27;12;26;12;27;11;19
1579212610012;12;27;12;26;12;27;11;19
1579212611042;12;27;12;26;12;27;11;19
1579212612041;12;27;12;26;12;27;11;19
1579212613022;12;27;12;26;12;27;11;19
1579212614051;12;27;12;26;12;27;11;19
1579212615032;12;27;12;26;12;27;11;19
1579212616027;12;27;12;26;12;27;11;19
1579212617029;12;27;12;26;12;27;11;19
1579212618006;12;28;12;26;12;27;11;19
